25

5 38
2
2 18
2 18
68 2

15 6
15
3 5
5 1
1 5
5 2
8 5
9 0
0 5
10 4
3 0
4 1
5 3
3 2
6 3
12 2
1 4
23 3

30 42
23
16 8
25 5
24 16
11 36
0 29
16 34
20 32
5 20
3 14
20 34
14 21
17 37
3 18
25 18
19 5
20 21
16 12
23 41
6 15
4 7
18 24
27 24
8 33
42 10

45 28
18
22 24
43 7
37 3
40 3
5 18
3 23
40 5
24 24
26 21
12 7
41 19
20 8
42 26
10 4
1 7
32 23
40 26
21 7
77 6

17 47
5
10 45
5 16
4 1
7 7
1 22
22 1

22 43
16
21 30
11 16
14 39
12 2
0 36
2 14
8 41
16 12
9 36
15 9
16 1
1 38
13 0
8 20
18 37
3 16
93 4

23 28
12
11 16
7 4
19 19
0 2
3 3
14 10
12 24
22 9
16 26
9 21
9 16
11 21
81 3

43 43
8
12 7
38 26
37 21
17 42
7 36
38 25
21 18
32 9
62 6

44 3
15
6 1
25 2
29 2
8 1
43 2
33 2
30 2
29 1
2 0
1 0
23 2
30 0
22 2
28 2
32 2
86 3

8 19
13
5 14
6 16
3 17
2 14
4 18
4 18
1 11
0 13
5 9
1 10
2 2
4 14
0 7
28 10

39 8
2
36 1
19 1
4 10

33 3
24
7 2
31 1
11 0
13 1
17 1
16 2
30 2
9 1
21 0
17 0
30 2
15 2
15 0
26 0
21 2
5 0
21 0
4 0
29 0
17 1
8 1
7 1
16 2
32 1
73 3

15 39
4
4 31
3 33
12 28
0 1
87 3

26 21
3
22 18
19 4
5 7
58 7

16 48
17
3 2
2 31
12 33
5 12
3 30
5 19
2 20
0 44
4 35
8 32
15 24
9 12
12 38
10 17
10 34
11 39
8 19
86 2

30 43
5
10 1
20 39
1 0
22 26
12 29
27 8

23 36
4
14 17
4 15
14 22
15 3
28 10

4 48
24
1 7
1 1
1 22
1 20
0 39
1 12
1 16
1 41
2 42
0 2
3 37
2 27
3 37
2 13
1 25
0 41
3 46
2 8
1 8
2 31
2 14
0 1
3 7
2 6
53 10

43 27
8
4 21
21 16
41 26
26 19
10 8
3 13
19 14
39 8
2 3

37 29
15
28 3
30 1
34 13
26 3
26 16
11 25
21 26
25 11
18 14
2 22
26 11
31 8
21 6
36 28
34 0
14 1

39 40
25
9 31
11 17
13 12
26 13
30 2
8 2
3 9
29 25
14 29
23 2
10 5
0 16
23 24
17 22
22 39
32 27
12 7
31 15
1 15
21 8
27 16
32 28
1 16
21 21
7 2
73 7

13 47
24
6 28
4 18
2 11
4 32
2 12
7 39
12 1
1 37
8 1
5 13
5 1
11 20
4 46
6 26
2 26
6 26
3 17
12 43
8 40
10 30
4 3
10 11
8 22
4 44
13 8

21 43
24
9 20
2 35
12 4
15 16
15 33
8 17
16 33
7 40
6 12
2 5
18 42
1 7
19 10
10 21
5 31
9 4
0 3
4 39
11 7
14 33
6 41
20 39
17 33
15 36
26 10

16 12
10
8 2
1 11
12 0
5 4
7 2
1 6
11 0
3 0
4 1
0 5
49 9

29 48
22
6 39
6 37
5 16
18 45
28 41
20 23
24 18
13 34
16 25
22 32
9 21
4 43
22 9
24 9
6 11
1 8
24 13
2 29
11 4
2 1
12 34
21 19
43 6
