*** Life<Cell> 22x9 ***

Generation = 0, Population = 16.
---------
---------
-00------
---------
-0------0
---------
---------
---------
-0-----0-
-00------
---------
---------
------0--
---------
-0-------
---0-0---
---------
--0------
---------
---------
0---0---0
---------

Generation = 10, Population = 73.
--.0*.-0-
**011.1--
**1.*...1
.--*---.0
**.......
..-1.--10
--*-.---1
...--.-00
-*-**-*--
..*..---*
*.-*0-.-0
*.---1.*0
-....0..*
---.--1*-
*-.-*..-1
*.**-1-.-
*.--1.-*-
*.0...*.*
*-.---*-*
..11-*--1
--.-.1*--
11*.**00-

Generation = 20, Population = 72.
-..-**1.*
..*..****
.*.......
.-..1.1..
..*....*.
....*...*
...**....
...-..*.-
.....-*0.
.....-...
..*.*1.1-
.*1*....1
*........
*.**.1..*
*..1*.*.*
*..**.*.*
*...*.*.*
****..**.
.*.-1***.
.***1..1.
-..*...11
.-...****

Generation = 30, Population = 31.
-*****1..
.*....*..
..***.**.
.-...*...
.........
.........
.........
.........
.....-...
.........
.........
..*......
.*..*....
...*.**..
..*..**..
....*....
.........
.........
.........
.****....
*.......-
**.......

*** Life<Cell> 17x20 ***

Generation = 0, Population = 11.
--------------------
--------------------
--------------------
--------------------
-------------------0
--------------------
--------------------
--------------0-----
-----------------0--
--------------------
--------------------
---0----------------
--------0-----------
-------00-----------
---------------0----
--------------0-----
-----0--------0-----

Generation = 13, Population = 143.
--------100-0-------
------01-0-0--------
------0-1-----0---0-
----0-**1---0010-0-0
-----*01-1*-1-10--0-
--01---1-**--0------
--00--01-10-001-----
0----0-1-*.*0--10-0-
-101----1*..0*1.11-0
*0-1*-..*.*-1--0*---
--110**1*.-..*.*1-10
*.-..10..-**..0-100-
.1-****.*-.**00..-.1
*0..1.....1.0.*.*01*
.-*-*.-..*0**11---0*
--****..--.1...1--10
**-*-00...-.**...0..

Generation = 26, Population = 115.
*1-*******..-******-
1-..-.*....--*-1.--*
-**...****..*****.11
..-.-..*.--1*-.11.--
*.**........***--..*
*..*...*....*.....*.
..*0-......*........
.*-.*-....***...1**1
.*...*..1.......**..
**...*.**..-...*.1.*
*-.....**.......*.*.
*.*..**..........1..
*.*.*..*....**......
.**...**...**.****..
*.....**....*....-*.
1*.......-...*....*1
.*..*-....-...**....

*** Life<Cell> 23x19 ***

Generation = 0, Population = 14.
---------0---------
-------------------
-------------------
-------------------
-------------------
-------------------
-------------------
----------------0--
--0----------------
---------0---------
-------------------
-------------------
------------0---0--
-------------------
-----0-------------
-------------------
-------------------
--------------0----
--------------0----
------0------------
------0------------
-----0-----0-------
---0---------------

Generation = 12, Population = 178.
.**.*10-0-0-00--00-
-0---0-------0-----
-*---0------0----*-
-----1--10---00----
-00---*1-*-1-01-110
-0---1-.0.--0-*-*0-
-1--.1-0*....*.0--0
--------11-11*.1*--
0--0..--0**0--10--1
-0---10--1*--***.0-
----0..--001*-.---0
--001..01--0--0-*-.
1*--.**0**01-0.-.--
---.1-.*-1-0.-.--*0
1-...--1--0*-1..---
1-1-**.-1.0--1.-*-*
-0*..*1-**-*-..1.0-
*-0-.***0.-*...-*-*
1*0*01*1*--*-*.1**.
1...-.*-.1.1.0.-*-.
-1...-.**-..-1*-*1-
0--1.-..-1.-.--1.*-
---*****---11..0*11

Generation = 24, Population = 155.
.**.....**.***.1.-.
.*....*1*0.--.**--1
.....1-**.-...1-..*
1*....1**-.-1***..-
*****.****..0-...*.
-1......**...-**.0-
..**..--...*....-10
.0.-*..*.---..*.*-*
***.*.*-...-*....**
*-*.....-.**.**..*1
*.....***.-*...*.-.
**..**.....*.*....*
*.*..**.***..-*0*.*
*-...**...-..-.1..*
.*.*.-*.*-0.....*..
.*.1.*.-****....*-.
....***1....-..*..*
.*-..*.........*..*
...*.....**...**.**
.......0*........*.
*.*..-..*......-.**
*.*....*...-..-*...
.*0....****...***..

*** Life<Cell> 15x16 ***

Generation = 0, Population = 13.
----0-----------
----------------
----------------
--------------0-
----------------
-0-------0------
--0--0----------
--0-------------
-------------0-0
---------0------
----------------
0------0--------
----------------
---------------0
----------------

Generation = 10, Population = 109.
-11-**-0--11*-00
--0-0.----1--10-
--.0.*.*-----*10
.-.0-01*---1-*-1
-*11-*0-0*--0*.-
-.--0--*0.10-.0-
.-.**-....*01*1-
*.--*01..-..0---
*-.--**--.*..*--
0..-1*-*--1.-.1*
--*--.--1*0.--0*
110**--0.---0*--
---0001--11*.*0.
10-*--1-00--0*-1
0-0010-1---00-11

Generation = 20, Population = 94.
-*.0***.......-.
.--**.-..*.*1..-
.1.*.*..*-.***..
.****......***..
-..1**1*.*..*.*1
-.***......-*.**
.*...-**.......*
...**.......***.
.-.1**...***.*..
**...*******.*..
0-*....1*.**1.-.
*.**..*-...*.*.*
*-.....*..*.....
*-*..-.1..-.*.-*
.*****--1..-...1

*** Life<Cell> 22x18 ***

Generation = 0, Population = 15.
------------------
------------------
------------------
------------0-----
------0--------0--
--0------0--------
------------------
------------------
----------0-------
-----------0------
-----0------------
------------------
------------------
------------------
---------0--------
------0--0--------
----------------0-
------------------
---------------0--
------------------
------------------
-------------0--0-

Generation = 16, Population = 181.
**-.1**-**1***---0
*1***11.***.11-*1*
***-.*11..**.-.1-.
...*..-1..*.-**--*
--1*..-.-1*.1...1*
-0.-.-.**.*.*.****
0*....-1**---**--0
-*.11.0*....-....1
*.-1-.100-1.*..1*.
-.-.1.*.0--.*-**-*
---*-.-.--1-*-*..-
-.--0-0.*.*---*.**
---*-*-01.1-**..1-
*-001**-..*-*.****
1-.10-1-*...*.0*1*
.1-...*..*-.*.....
-.-1.-.0*..***....
10..-*..***.0-*0..
1111-111......**..
..--*.0*.*.**...*.
-0-*...1-1..-***..
-*******.***......

Generation = 32, Population = 103.
.*1.-..-......1...
*.............*...
....**..*.....**..
*.*.****.*..**..*.
1-.*...........***
1.....**.**.......
...*.*.*.***..*.**
-***.**...*.......
.*.*......-**.***.
.***..**.*........
...*.....*........
....*.1.****.1....
--...***..***.....
.-.-..***..*......
..*.-....**.......
.*.*....**........
*..*....*.........
.**....**.........
......*.*.**......
..-..*....*.......
1....*.***..-.....
-.....*...........

*** Life<Cell> 20x9 ***

Generation = 0, Population = 16.
0--------
------0--
-----0---
---------
---------
---------
----0----
---------
0--------
-0-------
---0-----
-----0---
--------0
------0--
---------
-----0---
-0-------
----0----
--0------
0------0-

Generation = 15, Population = 66.
.****..*1
*-.11*-10
**-...---
-*..1--11
-.--*.1*-
---**1*..
.-1.1.-.-
-.**...-.
**.*...*1
*..****.*
..-**.0..
-..**...-
.**....--
..*.*-.**
..-.-***.
..-*.-..*
-.**0*-..
...*..-**
...-.*..1
.-.-1..-.

*** Life<Cell> 21x7 ***

Generation = 0, Population = 11.
-----0-
-------
------0
-------
-------
-------
-------
--0----
-------
-------
--0----
-------
-------
-----0-
-0-----
-------
-------
------0
--0----
------0
0---0--

Generation = 13, Population = 54.
-..-...
00-*.11
-*.1...
--.-..1
101.**.
10*--*.
-.1-1-.
-.*01*.
*-.*-..
*-.*.-*
*..-1*-
..*-.-*
...1-..
0.....*
--*-*.*
0*.--..
.--....
.1-.**-
--.*..*
**--*..
*11.*.*

*** Life<Cell> 25x20 ***

Generation = 0, Population = 19.
--------------------
------------------0-
--------------------
--------0-----------
--------------0-----
------0----------0--
--0-----------------
--------------------
---0----------------
--------------------
-----0------0-------
--------------------
--------0-------0---
---0----------------
-----0--------------
--------------------
------------------0-
-0-----------0------
--------------------
--------------------
--------------------
--------------------
-----------0------0-
--------------------
-------0------------

Generation = 10, Population = 169.
01*.1--------1.11---
0-------0----1..-.-0
--0..1001-1-0-.----0
--0-01--.1----11-..*
---1--0-*-.-0---...-
---1-*-----101..-.*.
*-.*-..-10-10---1-*-
10-.0*-0.0---000---1
.*.---0..*1-----01.1
-.10.1--1-*11--00-*-
-..-0-.1*.1.0.10--1-
-*1.-0.-*-*001---00-
-.0.--1--00-0---0-0-
-----.-*111.11-0---0
---*-.-.....-1-00---
---1-.--..-1-----0-0
-.0--------101--0-0-
-1--0*0-00-*-----0-0
--0*-.0.**-*----0-0-
-----.---0---------0
------01-*-.101-.-01
-01.1----------.----
-01.00-0---11-..1*10
-------------1-.-0--
---0-0----0--0-*-101

Generation = 20, Population = 199.
*****.**..-*.*****-.
....*.....*-.*******
1****-*.*.1-....1-.1
.0.**.*..*...**.....
--..*---**...1.**...
.1..1*0--1..-...**..
.-..-.*1*.*.....1*.0
.-.*-.**.1-*-*..-.0.
...*.***...*..*0....
-.**.*11*1*1.*.0-**-
...*0-*...*.1*.0*.*1
.*.***....*.**.*-..*
.*.....**1***1.-1...
.***-*........*.-..-
1..*....***.-*.1...-
*.-.-*.-*...-00-.-.0
**.1*..1..*...01*-*.
.*....*--.0*..0-.-**
.-*.*...*.**...-0-..
1-....-.1-***--*-*-.
.*-1-.**.***....*0..
.-**.-*1-*..*...*.-.
****-.-.*-**.......-
.**..--.---1-*-...-.
-..10**.**.**..*.-0.

Generation = 30, Population = 149.
..*****...1**.....-.
.**...*...***.......
..........***....-..
.***............**..
.**..-.........*.*..
............1..*.**.
......*.......*....1
........*.-*.......*
.....*..***....0....
-.........*.*..1*..-
...*1*....***...**.*
..****.**.**....-..*
..**..***....-..**..
...*1..*.........*.-
....*...*.......***.
..1.-.....***1-*.-*.
..***..........**..*
.......--.*....-*-**
......*.***...**-.**
.....**....***-**.-*
....-**........***..
....*.**.*.....**...
....***..**.******..
.....**..*-.****.*-*
....-...***......11*

*** Life<Cell> 15x20 ***

Generation = 0, Population = 11.
--------------------
--------------00----
--------------------
0-------------------
--------------------
--------------------
--------------------
------------------0-
--------------0-----
0--------0-------0--
-----------0----0---
--------------------
--------------------
--------0-----------
--------------------

Generation = 14, Population = 138.
-----0.0---.---*.-*.
01--.......*...*...*
-------010.*-.1*1.-*
-0-0-001*.0--**.0*.*
---01-001-010**.-*.1
*.-001-*.-0*..1.-.*0
-11-1-1-0-*01.-**-.1
0-10*1.---1-*1.**...
0-----.-.*-*.---0..0
-11**1*-..1*-.0*.***
0.-1-.*.*.*..--*.*.*
-*.1-1***--*--0*....
-1-00-*.--*.11-*--.-
--110-0.*.-*0*.01..*
-1-0-01--.1*.*0**0-1

*** Life<Cell> 16x6 ***

Generation = 0, Population = 12.
------
------
------
-----0
------
-----0
0-----
-----0
-0--0-
------
--0---
------
---0-0
------
-00---
-----0

Generation = 17, Population = 29.
..1**-
1*-...
....-.
-.*-.*
.*..*.
.*.1.-
-*..1.
.*..*.
.....-
..1*..
.*.***
**-..*
*.-.--
.....*
.*...*
-.--.*

*** Life<Cell> 26x16 ***

Generation = 0, Population = 18.
----------------
----------------
-------------0--
--------------0-
----------------
----------0-----
---------0------
----------------
-------------0--
------0---------
0---------------
----------------
----------------
---0---0--------
----------------
----0-----------
-------------0--
----------------
----------------
-------0--------
----------------
-------0--------
------0--00-----
-0--------------
----------------
---------0------

Generation = 11, Population = 184.
-0----0---0-0-0-
--0--0-0---0----
----0-010-----0-
---1101-00-0---0
---0--00-0--0---
--..00-10110-0--
-00--101-0--0-0-
---1.--1-0---0-0
10....*.1*----0-
.**..1-*-00--0--
1-...**.--1-0--1
11*1..-.0---1-1-
----.-0-01*---0-
**-**0**---100**
.*-*01-.*.1--10-
*1**01*..1.**-1-
*--1*0.0.-..*10-
*-1..--.*0-11001
1-10.0-.*...--00
0*-..-**..*0-.-0
0---1101-.10-..-
0**-**-.*.1*1.-1
-*.-0-.10-....--
0-*1*.*.-*..-.0-
1*---0---..***--
-101-*00-.0-0-0-

*** Life<Cell> 19x20 ***

Generation = 0, Population = 11.
--------------------
-0-----0------------
0-------------------
--------------------
--------------------
-----0------------0-
--------------------
--------------------
---0------0---------
--------------------
-------0------------
--------------------
----------0---------
----------0---------
0-------------------
--------------------
--------------------
--------------------
--------------------

*** Life<Cell> 15x12 ***

Generation = 0, Population = 20.
--------0-00
-0--0------0
----0-------
------------
------------
--0---0-----
---------0--
-------0----
--0---------
0---------0-
-------00---
------------
---00-------
------0--0--
------------

Generation = 15, Population = 65.
11..........
*.......1.1.
.-0.-1.....*
**1.*.**.1**
-1.1**-*1..*
.....1.-.0*1
.1*-1...-..*
..**..*-0*.*
..1*.**.**.*
.1.-***.--.0
0*-.-..*..*.
*.*1...**.*-
.**.........
-0*-......--
.1-.........

Generation = 30, Population = 49.
-.**........
.*..*.......
.*.*.-......
..***.......
-.**........
..*.*.*.....
.***..*.....
.**..***....
***..*..**..
.**....*.*..
-***......*.
....*..***..
.*..*.......
*...*..**.--
.**.........

*** Life<Cell> 19x19 ***

Generation = 0, Population = 13.
-------------------
-----------------0-
-0-----------------
-------------------
-------------------
---------00--------
-------------------
-------------------
----------------0--
--0----------------
------0----------0-
----------------0--
---0---------------
-------------------
-------------------
---0---------------
-------------------
--------------0----
---------------0---

*** Life<Cell> 16x19 ***

Generation = 0, Population = 20.
---------0------0--
------------0-----0
----------------0--
-------------------
-------------------
----0----0--------0
----------0--------
-------------------
-----------------0-
-------------------
--------0----------
-------------------
---00----0--0------
-------------------
--00--------------0
--------0-------0--

Generation = 14, Population = 130.
-*-01-0-.*-*1..-1**
1--01--*..0..-1**1-
1.11--*.-*1...--.**
1*--*..--.-*-*.*.-.
*-1....***1*..**.**
.*.---....1....-.*-
0*0.--.-.*-0--**.1*
-.0*.-*.***--.-****
-1.**.*1*.--.*1..1.
*****.-0*.1---0.1..
1....*---..-.11*-**
1-*1-0*...*.-.*-***
*-**.*0..-**..-1***
-.0.*1*-.*-*1*...-.
...**-.*.-01..--...
--...*...-..110..-.

Generation = 28, Population = 82.
1..**.-.***........
*....*-.*.**.......
....1*...**..*.....
*....**....*-....1.
.*..**..**.*...***.
...*.*.......******
..-.-*....-...*....
..1..*........**.**
-.*...*.......**.**
...***.*..*.****1..
...*...***..*...-..
....**.*.*.........
.....*...*.*.......
.......****........
........***........
-........1.........

*** Life<Cell> 19x9 ***

Generation = 0, Population = 18.
-------0-
-0-------
0--------
-0-0-----
---------
-0-------
-----0---
-----0---
---------
-------0-
--0------
---------
---0--0--
---------
0-0--0---
----0----
---------
------0--
-----0---

Generation = 20, Population = 64.
-.*****0.
.*..*.*--
**.****..
-*.*.*.*.
*....*.*1
*..*.**..
.1.****..
-.......1
.*....**.
*.-...*1*
*.....***
*........
*.*....-.
***..1...
........*
*-.**...*
.**.....-
1*.*...-*
...*..-*-

*** Life<Cell> 26x9 ***

Generation = 0, Population = 15.
-----0---
---------
---------
---------
---------
---------
-----0---
---------
------0--
---------
---------
---------
---------
0--------
---------
-------0-
-0-0----0
---------
-----0---
-------0-
-------0-
---------
0--------
0---0----
---------
------0--

Generation = 18, Population = 104.
-.*1*1*--
*-.-.*---
11.**.**.
**-0-..1*
..1-.*..*
.*1*.*.--
.**...*.*
.----.1**
..-....**
*..--.**0
.......*1
0-.......
*-****1.-
*1.**.-.*
*.*..***1
***-.*.-0
...0..**.
.0...*.-.
.**...*-*
*..*.*..*
.**...***
.**...**.
....**..*
***.*.*.*
*-...**.*
*****1...

Generation = 36, Population = 55.
.....*.-.
........1
.......*.
..-......
.........
.........
.........
.-...**..
...**.*..
..*1.**.*
...**..**
--.**....
.-.*.....
....*....
.**.**...
.*****...
.**.**.*.
..*.....*
....*....
..*.*.**.
.**..*...
.*...**..
..**.**..
..***....
.-.......
.........

*** Life<Cell> 22x20 ***

Generation = 0, Population = 20.
--------------------
--------------------
---------0---0------
-0------------------
---------0----------
--------------------
----------0--0------
--------------------
--------------0-----
--------------------
---0---0-------0----
--------------------
---------------0----
--------------------
------------0-------
--------------------
------------------0-
-0--0---------------
-------------0------
------------------00
--------------0-----
---0----------------

*** Life<Cell> 21x5 ***

Generation = 0, Population = 15.
----0
-----
-0---
0----
-----
-----
-----
-----
0----
----0
0----
0--0-
-----
-0-0-
---0-
---0-
--0--
----0
-----
-----
----0

Generation = 12, Population = 44.
1*.*.
*----
-.-.*
.-*-*
1-1.-
.-**.
..--0
*1..0
1..-1
*1.1-
.-*.-
***1.
*.*.0
*1-..
..*..
**0*.
1-...
...*.
-..-*
*-1.*
.0-*1

*** Life<Cell> 22x18 ***

Generation = 0, Population = 17.
------------------
----------------0-
-----------0------
-0----------------
----0-------------
------------------
------------------
--0--------0------
------------------
-----------------0
----------------0-
------------------
----------0-------
------------------
-----------0------
------------------
--0---------------
------------------
----------0-------
-----------0------
----------0-------
-----0------00----

Generation = 11, Population = 165.
-0-11-1-00----0-1-
0-1----0*----0---*
1*-.1-11.*1.-1-*..
0..-.-0.0*0..-0-**
*1.---0.-0-.0-0-.-
.1.---1-01-*-0*-**
1-*-.0--0-.-------
*.-1..--**----0-11
1-10--.------000-0
111-----0--*---01-
--*0-0--11-.---000
--11---0-.1.111---
-0.-*0-*..1.....--
00.00----.0--1-*--
--1--110-**-*-1..-
--010*-1--1-.-0--.
0------111-..-01--
00*--10-----...*-0
-00000---.*-**-**-
0-00-0-1*--....**.
--1-0----..010.-..
01**1.**0********.

Generation = 22, Population = 155.
-....-.-**.*..**--
...1-..-..1**...*.
***.1..**....*..*.
1**1..-...*....-..
*..*.**..*-**.-..0
.**.*.*-*....*****
.*....*.*...1*0.-*
..*.......-......1
..1-.****.*-....0.
1..*.-...*1**..*..
**.1.-.*1...*1.-.*
*.*-.--*-***...-*.
*....**.*.-.****--
.1.*.**0.*-*.***-.
--.....**.....**..
*.1*..*-*....--*..
.*...0.-.**.*1.**.
**.*..1-1*****..*.
****0***-*......*1
*....***.**.***.*.
.**-*......1*.....
-.*.*.......*.....

*** Life<Cell> 15x17 ***

Generation = 0, Population = 16.
----------------0
------0----------
-0-------------0-
-----------0-----
-----------------
-----------------
----0------------
-----------------
---------0-------
0----------------
-----------------
-----------0-----
-------------0---
-00--------------
0-------0-00-----

Generation = 10, Population = 109.
--0-0*-1--..0**..
---0--0*1-*0**--0
01-1*--10-0..*-..
--*-1*--0.1-0*0*-
*-01---111001--01
.0*-----*11------
1.----*1...-.----
-.10--1-011------
-.----0-.--.--0*-
--.-*01-100.-0-*-
1.01**0-.1*..1-.1
-1.-.1*-1**1-.-.1
------111..-1-*--
***...-.-*1*-.-*-
01**1*-**-...1--*

Generation = 20, Population = 102.
-.-****.*-..-....
--*.....-**-..1*0
*..*.*111--*..-..
.-.*.*.-1**1..-**
****-.1..**.1..**
*..0*...**.*0..**
...*--*......--.*
*.***-****....*-*
**1.-***....*...*
1..1..***--*-....
..*-*..1...*..1..
-*.*.1*....*..-..
*.*-**11..*-.1**.
.....**.*..**...1
1.....-*.....**-.

Generation = 30, Population = 92.
*..*....****0....
*..*...*...*.....
.......**...*....
.0...*.*.*....*..
*..*.**.*.**.***.
..**...*..**.**.*
*.*..-*.....**..*
.....**....**...*
...*1**..*****.*.
...*..****..1....
**...*..**...***.
**.*.*...*...***.
.*....**.**....*.
.......*.*....*.*
..............*.*

*** Life<Cell> 19x12 ***

Generation = 0, Population = 19.
--------0---
-----0------
------------
--0---0-----
------------
------------
------------
-0-0--0-----
---------0--
------------
---0--00----
-----0------
-----------0
-0-0---0----
------------
----------0-
--0---------
------------
---0--------

Generation = 15, Population = 94.
.**---*-1---
*...1..-..*.
-0.0--.1*..*
*...*..-.1-0
*10.-.-*.-..
*.-...-1..00
*.*-.-.--10-
*.*...1.*.01
-*.****.*-**
**1*-***...-
.1*..-.*.-*.
1.*.**-...*.
--*.*-*.-.**
*--.*.1*****
*-**-.0**-..
*..*...**..1
*.**...-..-*
*...0.-*-..*
-***-1...-.-

Generation = 30, Population = 41.
............
............
.....1**....
......*-....
.-.*-*...-.*
...*.*....**
...*.-....*.
....***.....
-....***....
...*-*..*...
..*....**-..
...***......
-...*....*..
......*..*..
*.*....*....
...*....*...
*...........
....-.......
-.***......-

*** Life<Cell> 25x14 ***

Generation = 0, Population = 15.
--------------
--------------
------0-------
------0-------
--------------
---0---------0
--------------
--------------
-------0------
--------------
-0------------
------------0-
----0----0----
--------------
--------------
----0-----0---
---0----------
--------------
--------------
--------------
--------------
--------------
---0-0--------
--------------
--0-----------

Generation = 13, Population = 161.
11*0**..*.*--0
-*-10-.-1.--.1
...*....--*1-1
**..1.--*.-*..
*1******...11-
*--1****111..*
-**0-...-.**00
00.*.0***.*.1.
**.*.*-.*-*-*1
0.-.0..-11-.11
1*1.**--..--1-
110-..*..*.--1
**..*.....*.**
-11*...1.*.-*-
0-*....0-1--*-
1-.**-*-.1-101
..*.10*.----1*
0-..*---00-0--
**---.-00-0--1
**.-1-0*--0---
0**.-.---1-1--
-...011--*----
-*.*1-..100*0-
---.*.1.---*.0
1-*1*..-.**-1.

Generation = 26, Population = 93.
..............
***.*....**...
.....**.....*.
......*..*.**.
......*....**.
..-...***.***.
....-.*.-.**..
**...-*.**...*
***...-......-
-*....**...**.
..**..**..*...
.*-*.......-..
.*..*.........
..............
.*...*.....1.0
.-...*.1..**..
*....*...*.*.*
*.*..-.......*
**.-..-..-.1.*
.**.***.-.*...
..*.*.*...*1..
.**.*.*.**....
*.....*.......
-....*...-..*-
.*.**.......*.

*** Life<Cell> 20x8 ***

Generation = 0, Population = 13.
---0-0-0
-----0--
00-0----
--------
--------
--------
--------
--------
--------
--------
--------
------00
--------
----0---
--------
--------
--------
--0-----
--------
------00

Generation = 14, Population = 74.
-*0-....
.*0.-*0.
*..*.--*
.-**0-1*
.*-..*.-
.****-.-
..-110**
-11-1-.*
.-*.-.1*
00*.1*.*
--*0*0**
..*.-.*.
-*-.--*.
*1...1.*
1--*..--
0-1-*.0-
001--*-.
*0..1...
*-.-**..
******..

*** Life<Cell> 30x19 ***

Generation = 0, Population = 13.
--------0----------
-----0------------0
-------------------
-----0-------------
-------------------
-------------------
----0--------------
--------0----------
-------------------
-------------------
-------------------
-------------------
--------0-------0--
-------------------
-------------------
-------------------
-------------------
-------------------
-------------------
---0---------------
----------------0--
-------------------
-------------------
-------------------
-------------------
-------------------
-------------0-----
-------------------
--0----------------
--------------0----

Generation = 10, Population = 150.
----0-00------.---0
-0-0-00-.---.--0---
0---01-0*0--1-0----
-0----1.*.-*11-0--0
--0----1.0--0-0---1
00--.*-1*----0----0
1-.11-.0*-----0-*--
0-1*.*..------1---1
--0-.--0*---0------
0--0*--...-0------0
0-------..-0--0----
-0-0-11-.00-------0
0-0-0-11.10-0---0--
---0-0-------------
0-0---0-*-----0----
------0---0--------
----0--------0-----
---0----0--0-------
--0--------1--100--
-0---0---0---------
0---0--------..00-0
---0-------001*-1--
------------.-0-1--
------------0-.-0--
0---00--------*0-.-
---0------------.--
--011--1--00---1*1-
-0---10------------
--0--11-0---000-.10
---01-0-1-----0-*-0

Generation = 20, Population = 218.
--0-.01.....*1*--1-
010-.-0-.*....-00-*
-*.**..******-10...
-*.0.-...*....1**..
*..*1*.*.-.*-*--.-.
-**1**-.....--.-.*.
.-....*....*.0*1*.-
.....*...*0..**--0.
-1.1.-*..-.--..**1.
11**.*...*.**1**.10
.-.-...**.-...--**.
.*--0.*....*-.-.*-.
--.-.*.....-*0*0*0.
*...-***..0--0**-1.
*1-.1-1***.1-.-.-*-
*-*.***-*-...-*..**
*-.-.*-...-1.-1.-.0
0-0*..1-*.....-..*-
-----.1..--....-.--
-0-*0-*1*1*..*-..11
-0**..-.-.-*0*.*-..
---0-*0.-.*.**.-.-.
--1-*--11.-..-1.*.-
--1*00*--*1.1-...-0
1*-..1.-0*****...**
---..-*.*-0*.1.-..0
-1-..*.*.***1-...*-
01..0.**-.11*-.0-1.
0-.-...******1-....
.-1..-.0*1*-.-.-.-.

*** Life<Cell> 28x18 ***

Generation = 0, Population = 11.
------------------
--0---------------
------------------
---------0--------
------------------
---------0--------
------------------
------------------
------------------
------------------
-----------0-0----
------------------
-----0------------
------------------
------------------
------------------
------------------
------------------
------------------
---------0--------
------------------
---0--------------
--------0---------
----0-------------
------------------
------------------
0-----------------
------------------

Generation = 14, Population = 210.
-1--0**100-*1-00-1
...--1-.***-*--1-*
---.1-*-**0*.1-.-*
-.*-.1-.-*-..*1.-0
---1-----.-0-.*01-
1*..1-010*0...0-..
-------1-*-.-..*01
0--***1-*-1-*..-0-
-.-0---10*0*-.*1-*
-10-1--..*.**-0*-*
-----11.-.-.001-0*
001-.--10*0-*-11-0
1--0-.-----*-000-0
1.--.-1-*.-.-1---0
*11100-1-*-.1*0--*
-0.*.---.------1-*
1--*.*-0-1--11-00-
1*...0--0---1----1
--*-*.**000----.1-
0..-...--11-.*0*-1
*.....*-*-..-*-0-0
*..1.1*..1-*.--00-
..*.*0.--*..-**0--
.*-*0*.-...--.*1-*
**.-.0.0.0*-01----
.-1-*-1..-1110--10
01.-.---------0---
--..*1---00-.*10--

*** Life<Cell> 15x17 ***

Generation = 0, Population = 18.
------0----------
---------0-------
--------------0--
------0----------
-----------------
-----------------
------0------0---
-----------------
-----------------
-------0----0----
00---------------
-00---0-----0----
---------------0-
---0--0----------
--0--------------

