20

8 48
3
3 5
0 5
6 36
248 151

64 100
14
28 47
13 20
39 41
29 48
48 34
48 54
6 75
1 65
51 47
8 43
10 34
37 81
42 82
12 39
473 156

12 66
30
8 41
8 50
6 64
7 55
5 46
11 61
4 1
3 64
6 51
8 24
9 31
1 35
2 59
7 58
11 13
0 8
5 23
5 44
7 3
6 65
4 46
11 21
7 30
4 53
8 4
0 32
9 18
5 20
5 9
7 55
230 101

98 77
40
45 35
0 54
74 32
78 66
12 57
46 25
48 0
77 3
66 20
6 0
9 25
94 63
18 4
6 45
57 41
20 59
47 61
26 1
73 17
85 39
22 26
53 35
26 5
50 62
58 0
10 45
71 52
1 25
41 57
90 28
46 45
19 1
85 72
82 31
66 35
73 35
20 66
36 53
35 40
17 66
136 98

10 11
28
1 10
6 3
3 10
9 6
8 2
2 9
5 7
2 2
8 1
5 6
4 5
9 8
8 3
4 2
8 4
1 7
5 6
7 3
2 9
0 7
9 10
2 4
5 2
3 3
3 7
6 9
1 6
5 3
192 161

77 55
24
64 35
56 39
51 32
28 18
48 29
76 43
24 11
15 50
16 7
10 20
8 34
34 13
26 32
55 6
47 26
69 20
7 45
48 33
4 26
53 10
26 28
6 37
52 11
29 26
428 84

85 73
2
32 53
5 59
119 199

80 35
37
24 17
53 29
23 30
36 31
9 18
68 19
66 17
30 6
24 28
72 23
56 15
55 19
61 32
11 34
51 3
3 32
9 9
21 31
44 13
17 22
66 13
79 25
17 18
24 11
5 27
33 17
49 0
33 13
63 0
37 33
16 27
74 20
54 7
13 3
60 33
60 4
6 29
453 51

95 100
21
66 10
3 94
40 47
55 60
22 75
85 63
69 37
76 90
90 25
59 3
62 87
90 8
24 7
69 37
83 63
84 92
2 46
83 90
6 14
75 46
59 30
336 87

85 24
20
78 22
74 3
69 18
26 12
49 0
44 11
44 3
8 0
22 1
16 12
27 10
6 20
47 21
4 7
72 7
66 2
61 15
5 10
25 10
69 16
410 196

93 51
30
85 38
7 20
88 33
27 6
21 28
43 22
12 3
82 16
83 8
17 36
62 0
66 17
86 15
1 47
88 43
4 47
28 47
11 8
79 44
79 24
78 31
67 27
41 26
63 41
21 11
65 22
27 10
9 37
11 10
71 47
480 127

3 62
16
1 61
0 40
2 2
0 32
2 49
2 36
2 21
2 1
0 30
1 59
0 50
2 60
2 6
1 2
2 55
0 5
455 102

15 36
1
2 15
264 77

39 98
10
12 68
33 74
21 72
0 60
3 62
35 31
1 89
21 42
21 31
19 10
422 126

36 29
1
18 9
358 72

6 99
20
3 14
5 63
3 73
2 86
4 43
4 98
2 24
0 9
5 25
1 19
0 23
1 21
5 94
1 80
3 58
2 2
3 82
0 50
5 79
1 94
281 148

32 62
25
4 34
22 55
30 20
7 25
29 35
25 55
30 0
0 13
13 43
21 30
20 10
21 38
0 27
24 34
31 21
30 44
22 16
1 40
29 54
24 47
27 32
18 51
4 55
25 50
31 5
160 11

55 41
24
25 38
10 26
52 9
43 10
44 0
43 39
32 31
26 3
29 21
45 38
20 22
15 22
44 39
22 12
33 39
24 13
51 9
3 28
35 31
50 17
7 27
23 9
16 9
19 32
24 100

17 21
22
1 10
4 5
10 1
1 11
14 5
7 15
16 14
4 10
3 17
8 8
2 14
3 17
1 17
3 5
12 3
12 11
6 12
5 7
0 7
9 16
6 3
15 16
196 105

56 81
25
9 35
21 76
17 7
37 20
28 23
42 16
22 75
24 8
21 13
51 13
11 22
29 22
8 38
51 6
30 11
18 25
23 60
0 4
23 8
26 47
35 55
10 74
1 37
33 73
38 66
487 104
