*** Life<Cell> 23x7 ***

Generation = 0, Population = 12.
-------
-------
-------
-------
-------
0------
-------
-------
--0----
----0--
---0---
--0----
--0----
-0-0---
-------
-------
---0---
-------
-------
-------
-------
0-0----
--0----

Generation = 1, Population = 29.
-------
-------
-------
-------
0------
-0-----
0------
--0----
-0-00--
--0--0-
-------
-01----
--1----
0-0-0--
-0-0---
---0---
--0-0--
---0---
-------
-------
0-0----
--10---
0010---

Generation = 2, Population = 37.
-------
-------
-------
0------
-------
0-0----
--0----
0---0--
0--11--
------0
-0---0-
01-0---
0--00--
-010-0-
--01---
-0-1---
-0---0-
-------
---0---
0-0----
--1----
--*-0--
1-*-0--

Generation = 3, Population = 72.
-------
-------
0------
-0-----
--0----
--10---
-0100--
100-10-
100*-00
00-00--
-1000--
---1-0-
10-11--
-1*10-0
-0-*00-
010*00-
01000-0
-0-0-0-
0---0--
--1----
00-00--
00*-10-
--.-10-

Generation = 4, Population = 37.
-------
0------
-------
-------
--1----
--*----
---1---
--1----
*-1.--1
-1-1--0
-------
0-----0
*-1*--0
-*.-10-
---.---
--1.---
--1----
0101---
--0----
-------
---1---
-1*0*-0
10.0--0

Generation = 5, Population = 65.
0------
-0-----
0------
--0----
-0*0---
-0*----
--1-0--
10*---0
.0**-0*
--0-001
01-0---
1111-01
*0**--1
-**-*1-
-00.00-
-1*.---
0------
1--*0--
0-1----
--10---
-0-*--0
--.-*-1
*-.1-01

Generation = 6, Population = 70.
-------
0-0----
--0----
0-1----
0-.10--
0-.-0--
00---00
*1.-1-1
*-..1-.
011-11-
---1---
*-**-1-
.-..-0*
-..1.--
011.--0
--**00-
1-100--
-1-*10-
1-*00--
0---0-0
0-1*-01
01*0*0-
.0.-11-

Generation = 7, Population = 70.
0-0----
--10---
-0-0---
1-*-0--
-0.*-0-
--.-1-0
1-1-01-
.-.0*0*
.0*.--.
--*1-*1
-10*---
.-**-*-
.-**1-*
0**-.1-
1--.0--
--..11-
-1--10-
1--.-10
*0*11-0
-0-0101
-0-.---
-*.1.1-
*1.---1

Generation = 8, Population = 61.
--1----
0---0--
---1---
--.----
--**---
00*-*--
---11-0
.1.1.1*
.1..1-.
-1.--.*
0*-.0-0
.-..0*-
.-..*-*
-.*-.--
*-1*10-
01.**-0
--10-1-
*10.1--
*1.*---
--1-*--
0-1*0-1
-*.-.--
*-*1---

Generation = 9, Population = 67.
00-00--
-01--0-
0-0----
--*----
0-**---
1-.-*00
1----11
.*.*.**
*-..--*
--*--..
1*0.101
.1.*1.1
.-.**0.
0**-.10
*1-.*1-
-*...--
-1-----
**-.---
*-..1--
--*-*01
-0-.---
0..-*-1
.1**1--

Generation = 10, Population = 66.
1-111--
0-----0
-0-1-0-
-0*----
1-**-00
-0.-*1-
*--1-**
**..*..
.-*.--*
--*11.*
*.-.---
**..*.*
*-...-.
-.*-.*1
.*-.*--
-**..1-
--1----
**0.1--
*-.**-0
0-.-*-*
---*-0-
-..-*--
.***-11

Generation = 11, Population = 88.
*-*-*00
1-1-0--
-10----
--.0--0
--.*0-1
1-.0.*0
*01--.*
*****.*
.-*.-0.
01*-**.
*.0.---
**.....
*-...0*
0*.1.**
.*1**10
0***.-0
11-011-
*.-.*10
*-*.*-1
10.0.0*
0-1*---
-..1.11
..**1**

Generation = 12, Population = 75.
.-.-*-1
*0--1-0
-*--0-0
-0.1-01
1-**10-
*-.1..1
.1-11.*
*...*.*
.1..11*
--*-**.
..1*10-
*......
.0*.*-*
-..*...
..*..*1
-....11
*-1-*-0
*.0..*-
*1*..--
*1.1.1*
10**0--
0*.-.--
..**-.*

Generation = 13, Population = 66.
.0.1.-*
*-10---
-*0-10-
-1.*---
*0..--1
*-.-..*
*----.*
***...*
.-..***
--*1...
.*-.*-1
.......
.1**.-.
-*.**.*
....**-
0*.**-*
.-*-*-1
*.-..*-
.*.**-1
.*.*.*.
*-.*1-1
-..-*-1
.**.1..

Generation = 14, Population = 74.
.-.*.0.
*----00
-.--*10
--.*-01
*-*.-0*
*-.-.**
*-1--**
**....*
.1..***
--**..*
..-*.--
.*.*...
.-.**-.
0*.....
**....1
1**..1*
*-*0*1*
.*0...0
**.*.--
**....*
.-**-0*
0**-*-*
...***.

Generation = 15, Population = 68.
.-..*1*
.0-0-1-
0.--.-1
1-.*01*
.-..11.
*0.-*..
*1-11..
*.*.*..
**.**.*
--**..*
..-**-1
...*...
*-.**0.
-**....
.....**
*....-.
*-.-**.
..-...1
.....--
*..****
.0.*11*
1*.-.-*
.*****.

Generation = 16, Population = 66.
.0..***
.---1*0
1*--.1*
*1.*1**
*0..*-*
*-*-...
.-1***.
.......
*...*..
0-....*
..-.*-*
..*....
.-.**1.
-***..*
.*.....
....*-*
.1.0.*.
..-..*-
....*0-
..**..*
.1.***.
*..-.1*
******.

Generation = 17, Population = 57.
.-..*.*
*--0-.1
-*01.*.
.*.**..
.-..*1*
*0*-...
.1-**..
.....*.
.......
11.....
..1..-.
.......
.1..**.
0*.*.*.
.*.*.*.
..*.*1.
.-.-.**
..-..*1
...**--
..*...*
.-.*...
*..-.**
*******

Generation = 18, Population = 54.
.-...*.
.--1-.*
-*-*.*.
.*....*
*-..*-.
*1*-...
**1**..
....*..
.......
**.....
.*-..-.
.......
***.**.
1*.*.**
**.*.**
..**.*.
.-.-...
..-...-
...**--
..*.*..
.-...**
*..-..*
*****.*

Generation = 19, Population = 66.
.-.....
.01*1**
1.-.***
***.**.
*0*..1.
.*.-*..
*.*.*..
.**.*..
.......
**.....
**1..-.
*.*....
*.*****
*..*...
*..*...
.***.**
.-.0...
..-...-
...**0-
....*..
.-...**
*.*1*.*
****.*.

Generation = 20, Population = 54.
.0****.
.1-**.*
*.-....
..*....
.-...*.
...1**.
*.*.**.
.**....
*.*....
*.*....
..-..-.
*...**.
*.*.**.
*....*.
*..*...
.*.*...
.1.1*..
..-*..-
...**11
...*..*
.-....*
*..*..*
*....*.

Generation = 21, Population = 51.
.-...*.
**1....
.*0*...
.......
.-.*.*.
...*..*
..*..*.
*.*....
*.**...
.......
.*1..0.
.*.***.
*..*..*
*..*.*.
***.*..
**.*...
.*.**..
..0...1
..**.--
...*..*
.-...**
.....**
.......

Generation = 22, Population = 54.
.0.....
*.-*...
*.1*...
...**..
.-..*..
..**.**
.***...
..*....
..**...
...*...
.***.1.
**.*.**
**.*..*
*..*.*.
....*..
.......
**.**..
.*1.*.-
..**.--
..*****
.-..*..
.....**
.......

Generation = 23, Population = 43.
.-.....
*.-*...
.**....
..*.*..
.-*....
.*...*.
.*..*..
.......
..**...
.*.....
**.*.**
...*.**
...*..*
****.*.
....*..
...**..
**.**..
*.-.*.-
.....11
..*..*.
.-.....
.....*.
.......

Generation = 24, Population = 44.
.-.....
.*-....
.**....
..*....
.-**...
.**....
.......
..**...
..*....
**.**..
**...**
...*...
.*.*..*
.***.*.
.*...*.
..*..*.
***..*.
**-**.1
....*-*
.....**
.-.....
.......
.......

Generation = 25, Population = 56.
.0.....
.*-....
.**....
.......
.-.*...
.***...
.*.*...
..**...
....*..
*..***.
**.*.*.
**..***
.*.*...
**.*.**
.*.*.**
*.*.***
*....**
*.1**.*
...**1*
.....**
.-.....
.......
.......

Generation = 26, Population = 44.
.1.....
**-....
.**....
..*....
.0.*...
.*.**..
.*..*..
..***..
..*..*.
****.*.
...*...
...*.**
...*...
**.*.**
...*...
*.**...
*.*....
.**....
..*..*.
......*
.-.....
.......
.......

Generation = 27, Population = 39.
**.....
*.-....
*.*....
...*...
.1.**..
**.**..
.*...*.
.**.**.
.....*.
.*.*...
.*.*.**
..**...
...*...
...*...
*..*...
..**...
*......
..**...
.**....
.......
.-.....
.......
.......

Generation = 28, Population = 44.
**.....
*.1....
.*.....
.*.**..
**.....
**.*.*.
.....*.
.**.***
.*.*.*.
.....**
.*.*...
...*...
...**..
..***..
...**..
.***...
.*.....
..**...
.***...
.......
.-.....
.......
.......

Generation = 29, Population = 36.
**.....
*.-....
**.*...
.*.....
...*...
***.*..
*..*...
.***..*
.*.*...
.....**
..*.*..
...*...
.......
..*..*.
.*.....
.*.**..
.*.....
...*...
.*.*...
..*....
.-.....
.......
.......

Generation = 30, Population = 41.
**.....
..-....
***....
**.....
*..*...
***.*..
*...*..
**.**..
.*.****
..****.
...***.
...*...
.......
.......
.*.**..
**.....
...**..
.......
...*...
..*....
.-.....
.......
.......

Generation = 31, Population = 23.
.......
..1....
*.*....
.......
...*...
*.*.*..
....**.
**.....
**....*
.......
.....*.
...*...
.......
.......
***....
**.....
.......
...**..
.......
.......
.-.....
.......
.......

Generation = 32, Population = 20.
.......
.**....
.*.....
.......
...*...
....**.
*..***.
**...*.
**.....
.......
.......
.......
.......
.*.....
*.*....
*.*....
.......
.......
.......
.......
.-.....
.......
.......

Generation = 33, Population = 17.
.......
.**....
.**....
.......
....*..
.....*.
**.*..*
..*..*.
**.....
.......
.......
.......
.......
.*.....
*.*....
.......
.......
.......
.......
.......
.-.....
.......
.......

Generation = 34, Population = 15.
.......
.**....
.**....
.......
.......
....**.
.**.***
..*....
.*.....
.......
.......
.......
.......
.*.....
.*.....
.......
.......
.......
.......
.......
.-.....
.......
.......

Generation = 35, Population = 14.
.......
.**....
.**....
.......
.......
...**.*
.**.*.*
..**.*.
.......
.......
.......
.......
.......
.......
.......
.......
.......
.......
.......
.......
.-.....
.......
.......

Generation = 36, Population = 14.
.......
.**....
.**....
.......
.......
..***..
.*....*
.*****.
.......
.......
.......
.......
.......
.......
.......
.......
.......
.......
.......
.......
.-.....
.......
.......

Generation = 37, Population = 16.
.......
.**....
.**....
.......
...*...
..**...
.*.....
.*****.
..***..
.......
.......
.......
.......
.......
.......
.......
.......
.......
.......
.......
.-.....
.......
.......

Generation = 38, Population = 15.
.......
.**....
.**....
..*....
..**...
..**...
.*.....
.*...*.
.*...*.
...*...
.......
.......
.......
.......
.......
.......
.......
.......
.......
.......
.-.....
.......
.......

Generation = 39, Population = 12.
.......
.**....
...*...
.......
.*.....
.*.*...
.*.....
***....
..*.*..
.......
.......
.......
.......
.......
.......
.......
.......
.......
.......
.......
.-.....
.......
.......

Generation = 40, Population = 10.
.......
..*....
..*....
.......
..*....
**.....
.......
*.**...
..**...
.......
.......
.......
.......
.......
.......
.......
.......
.......
.......
.......
.-.....
.......
.......

Generation = 41, Population = 10.
.......
.......
.......
.......
.*.....
.*.....
*.*....
.***...
.***...
.......
.......
.......
.......
.......
.......
.......
.......
.......
.......
.......
.-.....
.......
.......

Generation = 42, Population = 9.
.......
.......
.......
.......
.......
***....
*..*...
*......
.*.*...
..*....
.......
.......
.......
.......
.......
.......
.......
.......
.......
.......
.-.....
.......
.......

*** Life<Cell> 8x61 ***

Generation = 0, Population = 20.
-0---------------------------------------------0-------------
-------------0-----------------------------------------------
-------------------------------------------------------------
---------------0------0--------0-000-----------------------0-
-------0-----0---0-------------------------------------------
-----------------------------------0-------------------------
------------0---------------------0-------0-------------00---
-----------------------------------------0-------------------

Generation = 10, Population = 168.
---0-*----10***10.-------------101--001-1---0--------01*..-0-
---0-.1.00--0.0-0.-0--10--11------*.--*--.---------0---*-.1--
-----11*-*0*.---11---*---0---11-1-1-1*1011.-0---------1-*..*-
----------1**---*..-.11--**.*-*.-*0.....1...10---0---1----1--
-0-010-*.-0...--.--01-----00--.---.--.---------1000-111---1--
-------1--1--*-1----1-0-011.--**01**1-.---00-1--11--0-11.*-1-
--11-100-1*...-.*10--11-01--0--.1**-*1-00---001..-..1*....*0-
-----------*-*-1------0----0--0----0-------0---*0*--010-*--.-

Generation = 20, Population = 172.
**-**..-*....*..-**1...--*.**.-....**.********....*..**...-11
0-0--....**....*-..**..-.0*....1..*.-*..-*....1...---...****-
*.-....***..*--*.*.--**.-.....*******..*....****....-*.**...1
*.-*.-*..-*.*....*.-...*.*.....***-...**....-*.*........****-
--**1--...*...*..*-*1**..........1*1..**--0..-...-.1..-..***.
0--0-*..-*...*-...--.*1-.....**.****..****.......-1...*.*....
.1...*-*-*...**.****.**1*...1*-..*.**.-*-***.........*.......
-.-.-.1.1.-...1...0**1.*--.-1...1..0***.1-*.1...-..**.....-.-

*** Life<Cell> 24x31 ***

Generation = 0, Population = 10.
------------------0------------
-------------------------------
--------0----------------------
-----------------------0-------
-------------------------------
-------------------------------
--------------------0----------
-------------------------------
------------------------0------
--0--------------0-------------
-------------------------------
---------0---------------------
-------------------------------
-------------------------------
--------------------0----------
-------------------------------
-------------------------------
-------------------------------
-------------------------------
-------------------------------
-------------------------------
-------------------------------
-------------------------------
--------0----------------------

Generation = 4, Population = 37.
--------0-----0-------0--------
-------------------------------
----0-------0-----0-0----------
-------------------0-------0---
------------------0-----0------
--0--------------0-------------
--------0-------0-------0------
---------0-------------0-------
--------------------0-------0--
0-----0------0-------0---------
-------------------------------
-----0-------0-----------------
------------------------0------
--0--------------0-------------
----------------0-------0------
---------0---------------------
-------------------------------
-------------------------------
--------------------0----------
--------0----------------------
-------------------------------
--------0----------------------
-------------------------------
----0-------0------------------

Generation = 8, Population = 39.
----------0---------0---0-0----
--1--------------0-------------
0---------------0--------------
---------0-----0-------0-------
--------0----------------------
-------------------------------
------------0-----0-0-------0--
-------------------------------
----------------0-0-----------0
----*.---*0--------------0-----
--------1----------------------
-0----.----------0-----0-------
-------------------------------
-------------------------------
------------0-------0-------0--
--------1----------------------
------------------------0------
--0-----*--------0-------------
-------------------------------
---------0---------------------
-------------------------------
-------------------------------
--------------------0----------
0---------------0--------------

Generation = 12, Population = 138.
*-----0-0-----0-----0-0-0---0-0
1-----0------0---0---0---------
-0.11-----0-------0-0---0-0-0--
--.--0-----0-0-------------0---
----1-----0-0---0-0-0---0-0---0
--0-1----01------0-------0-----
0----0--------0-0-----0-------0
-0--0-0--*-----0-0-------------
---01--0.---*-0-----0-0---0-0--
1-*0..0--.-.-11------0-------0-
---1--*0--.-1-----0------------
-0-.*-*10----0-----0-0-----0---
-----00---------0-0-----0-----0
--1-1---*11------0-------0-----
------------------------------0
-1--0---10--1----0-----0-------
--------11----------0-------0--
0---0--1..--10-------0---------
--------11--0---------------0--
0----0--.----0--1--------------
------------------------0------
0-0-----1-------01-------------
----------------0---0---0------
--0-0----0--0-------0----------

Generation = 16, Population = 148.
.-0*0---------------0-------0--
.0.1.-*------------------------
1-...-01----------------0------
--.1.-1*-1-------------0-------
--.-*-00*----------------------
..*1.01-..--.----0-------------
--1-1-1-10.-------------0-0----
0-----1--..*-1.----------------
1*----01*---.0------0-0--------
--.-***.*.1.1.11--0----------0-
0.0.0-*01-.1*0-----------------
11...1..**-0-*.--------0-0-----
-0-01*-------------------------
--10--1*.**-1------------------
---10-00-*1-------0-------0----
-----100*-.*.------------------
----1---*1--*1----0------------
--11-0****11..*----------------
----01--*.1-*1------0----------
----.10*.100*-.-*1-----0-------
------1--00------1-------------
------*-*------1**10-----------
---------0-------0--1----------
--0---*-1-------.-.-.---1------

Generation = 20, Population = 230.
.-....----------0-------0-----0
*-*..-.0--1------0-------------
*-.*.**1--*1------------0-0----
1-.*.*..-.*--------0-------0---
.....0--*0.--10-------0-----0--
...**..-.***..----1--0-------0-
-0.-1-*-..*--.*-0---0-0-0---0-0
*1*---11-.*.0..*0--------0-----
*.-.--*1.*--..-1-1.-----0-0----
-.*1..***..*..*.*.01--1--0---0-
**0**-.-***..01.-11-----0------
-*.....***0--.*----1-0-----0-0-
0.-1-*-0---.-1.-0-*-0-0--------
-0.111-..*.**10-1-0----------0-
---*...-1*-0-01-----0---------0
1-1.1****-**.1-100-------0-----
10*--.--**1***-0------0--------
*..*--..**......1.-0-----------
10-0-.-1.*11..0---1-0---0-0----
---..1**.*-*.-.**-*110--1--0---
-----*-0-0--10--0*1.10---------
--00--*-***---.*..-.*-1**------
----1---10.--10**.*-10*-0------
0-0---.0.-*1----.-*-**------0--

*** Life<Cell> 2x60 ***

Generation = 0, Population = 5.
----------------------------------------------------------0-
------0-----0---------------------------------------0------0

Generation = 10, Population = 20.
------------------------------------------------0-0-*---**-0
--------0-0-----0-0-0-0-------------------0-0-0--00.0.-.-**.

Generation = 20, Population = 21.
--------------------------------------1-00-**-............--
0---0-----0-----0-0---0-0-0-0-------0--1001--*1.-.-.-.-.-...

Generation = 30, Population = 10.
----------------------------0-.1.*.-.....--..-............--
--------0-0---------0---0---010--..--.-.........-.-.-.-.-...

*** Life<Cell> 5x34 ***

Generation = 0, Population = 11.
----0-----0------0----0-----------
--------------------------------0-
-------0-----------0--------------
----------------------------------
------------0----0----00----------

Generation = 4, Population = 36.
0-----*0*---011--011-000--0-------
----------------------------0-----
---1*-----*00--0------------------
----------------------10----------
----0--01-0--0--001---**1-10------

Generation = 8, Population = 62.
---*-1*0.-*0***--**.0.0-1*----1---
--0---.-1-*--------0--1.0-.-1---0-
--*..1----*-*0-1.-0---11--00------
--0-0--10-*-0-11---1*..0**0-------
---*11-..0-1-*..-*..--*.*1*..-10--

Generation = 12, Population = 71.
--*.-**.*1*0*.*1*...-*.-*.-1*010--
-1-0-0.--*.*1*0.-11--0-..-.11---1-
..*.**-1.-.-.-0*.*01-..*.**-------
*0*1..-..-.-*1*-01-*...-*..1--0---
0--**.0***-*-...*...*-....**...*.*

Generation = 16, Population = 63.
--.*-*.*...1**.-.**....1..0..--*.*
.-1*.*.11.*...-.-1*.1-***-.*--11*-
..**.*--.1*1......*--*.*...*-.----
**....-..*.-*-**1--..*.*..*..1-0--
**...*-****.0..*..***-.....*......

Generation = 20, Population = 58.
0-..-..**......-.*...***..-***-.*.
.1-*****.**...-..1..*....-...1..*0
........*-.**.*.....-.**.....*.0--
***..*-*.*.-.1**.*0*.**......1--*-
**....*.*..**........1.....**...*.

Generation = 24, Population = 48.
-1**1***...*.*.-..........-.......
.--**.....*...........*.*-...-*...
*........*...*..*...0...*...*..--1
.****.-....*....**-***.**...*.*1.0
..**...**..*.....****.............

Generation = 28, Population = 39.
.....**........-..****....-.......
*11..**.........*....**.***..1..*.
..........**....*....*....*....1.*
*.*...-...**...*..-**.....*.....**
.*....................*..*........

Generation = 32, Population = 44.
.....**........-.*...**...-.......
.-*.***.........*......*.....-....
...*......**....*.***..*..**...1**
.*.*..-...**.....*-**..*..**....**
.**...............**.**...**......

Generation = 36, Population = 41.
.****..........-..***.....1.......
.**..*...........**.....*..*.-....
.*.*.*....**......*.**..*..*......
.*.**.-...**......-..*..*...*.....
.*.**............***......**......

*** Life<Cell> 65x60 ***

Generation = 0, Population = 25.
------------------------------------------------------------
------------------------------------------------------------
------------------------------------------------------------
------------------------------------------------------------
------------------------------------------------------------
-----------------------------------0---------0--------------
------------------------------------------------------------
------------------------------------------------------------
------------------------------------------------------------
--------------------------------------0---------------------
------------------------------------------------------------
---------------------------------------------------------0--
------------------------------------------------------------
---------------------------------------------------------0--
------------------------------------------------------------
------------------------------------------------------------
------------------------------------------------------------
------------------------------------------------------------
------------------------------------------------------------
------------------------------------------------------------
------------------------------------------------------------
------------------------------------------------------------
------------------------------------------------------------
------------------------------------------------------------
------------------------------------------------------------
-----------------------------------------------------------0
--0---------------------------------------------------------
-----------------------------0------------------------------
------------------------------------------------------------
---------------------------------0--------------------------
------------------------0-----------------------------------
----------------------0---------------0---------------------
------------------------------------------------------------
------------------------------------------------------------
------------------------------------------------------------
------------------------------------------------------------
------------------------------------------------------------
------------------------------------------------------------
------------------------------------------------------------
------------------------------------------------------------
------------------------------------------------------------
------------------------------------------------------------
------------------------------------------------------------
------------------------------------------------------------
-----------0-------------------0----------------------------
-------------0----------------------------------------------
------------------------------------------------------------
-----------------------------------------------------------0
------------------------------------------------------------
--------------0----0------------------------------------0---
------------------------------------------------------------
------------------------------------------------------------
------------------------0-----------------------------------
------------------------------------------------------------
------------------------------------------------------------
------------------------------------------------------------
------------------------------------------------------------
------------------------------------------------------------
------------------------------------------------------------
---------------------------------0--------------------------
-----------------------0------------------------------------
------------------------------------------------------------
--------0---------------------------------------------------
------------------------------------------------------------
--0----------------------------------0----------------------

Generation = 7, Population = 914.
---------------------------------0---0-----0---0------------
--------------------------------0-0-0-0---0-0-0-0-----------
-------------------------------0-0-0-000-0-0-0-0-0----------
------------------------------0-0-0-0011--0-0-0-0-0---------
-----------------------------0-0-0-0000-0--0-0-0-0-0-----0--
----------------------------0-0-0-001*..-1--0-0-0-0-0---0-0-
-----------------------------0-0-000000-0-00-0-0-0-0---0---0
------------------------------0-00110011-1100-0-0-0---0-----
-------------------------------000000000000000-0-0---0-----0
-------------------------------01*1.*100-00**00-0---0-----0-
--------------------------------0000000-0-0000-0---0-----0--
---------------------------------01100-0-0-00-0---0-----0---
----------------------------------000-0-0-0--0--------------
-----------------------------------0-0-0-0--------0-----0---
------------------------------------0-0-0----------0-----0--
-------------------------------------0-0------------0-----0-
--------------------------------------0--------------0-----0
------------------------------------------------------0-----
-------------------------------------------------------0----
--0-----------------------------------------------------0---
-0-0-------------------------0------------------------------
0-0-0-----------------------0-0-------------------------0---
-0-0-0---------------------0-0-0-0---------------------0----
--0-0-0-----------------0-0-0-0---0-------------------0-----
---0-0-0--------------00---0-0-----0--0--------------0------
----0-0-0------------010----0-------00-0------------0-------
-----0-0-0----------00*-0-----------000-0------------0------
----0-0-0----------010-*-0--0------1-*00-0------------0-----
---0-0-0----------00100-1-00-0----0-00000-0------------0----
--0-0-0----------01000-0-1110-0--1-101*100-0------------0---
-0-0-0----------00*01-.---*000-00-0000000-0-0------------0--
0-0-0----------0-000*0--.--*1101-*101100-0-0-0------------0-
-0-0------------0-001000-00-10--0000000-0-0-0--------------0
--0--------------0-000100010----00*100-0-0-0----------------
------------------0-00*00010-0-0-0000-0-0-0-----------------
-------------------0-000*00-----0-00-0-0-0------------------
--------------------0-0010-------0--0-0-0-------------------
-----------0---------0-00------0-----0-0--------------------
----------0-00--------0-------0-0-----0---------------------
---------0-0010--------------0-0-0--------------------------
--------0-000*00------------0-0-0-0------------------------0
-------0-00*00010----------0-0-0-0-0----------------------0-
------0-000100-100-0------0-0-0-0-0-0-------------------00--
-----0-001000*1-01--0----0-0-0-0-0-0-0-----------------011--
----0-000*0-0*01--0--0--0-0-0-0-0-0-0-0---------------000-0-
-----00*01-.-01-------0-00-0-0-0-0-0-0---------------01*-*-1
------0100---0----0--0---00-0-0-0-0-0---------------000-000-
-------00-1-0----1-10-----00-0-0-0-0---------------011-**.0-
---------1-0----0-000------00-0-0-0---------------0-000-00--
-------0--0----**.10-1------00-0-0---------------0-0-011----
--------0--1--0-000-1------0-00-0-----------------0-0-000---
---------0--01-100-1------0-0-00-------------------0-0-011--
----------0-00000-1------0-0-0-0-0------------------0-0-000-
-----------0-0-011-----00-0-0-0-0-0------------------0-0-011
------------0-0-00----0110-0-0-0-0-0------------------0-0-00
--------0----0-0--0--000000-0-0-0-0-0------------------0-0--
-------0-0----0----001*11*10-0-0-0-0-0------------------0---
--0---0-0-0--------0-00000000-0-0-0-010---------------------
-0-0-0-0-0-0------0-0-01100100-0-0-00*00--------------------
0-----0-0-0-0----0-0-0-0000*000-0-010-010-------------------
---0---0-0-0-0--0-0-0-0-0-000*00-001-.-10-------------------
0-0-0-----0-0-0--0-0-0-0-0-0010-010-0-0--0------------------
---0-0-0---0-0-0--0-0-0-0-0-00-00*-1-1----0-----------------
----0---0---0-0----0-0---0-0--010-0-0------0----------------
---------0---0------0-----0---01-.-1--------0---------------

Generation = 14, Population = 1111.
------------------------------------0----1------------------
-------------------------0------1-..*..---1-00-------0------
------------------------------------0-00-1-1----------------
-----------------------0---0--0-----0-1.1-010-00---0---0-0--
---------------------------------01-1-0101-1-1--------------
---------------------0---0--01.-1---1*..-.*1.01-0----0-0---0
-------------------------------1-*-1--1-01-1-1--------------
-----------------------0--00---1*0..-01.111-1-0---10-0---0--
------------------------------011.010-1----01----0----------
------------------------01-.10---*...-000-0..-.-*..11--0----
------------------------------011*1*00------10---1----------
--------------------------00---1*-..--000001*.-1-01--0-----0
--0----------------------------1-.*.---------0--------------
----------------------------0---10*101.*00---*--1--0-----0-0
0---0-----------------------------0--0----------------------
---------------------------0--1--0-1--00-00---00-------0-0-0
0-0---0-----------------0----------1------------------------
----------------------0--0---0-01--.100-0--11----0-0-0-0-0-0
0-0-0---0-------------1---0---------------------------------
--------------------0--10--0-0-0-01-010-0-0--0---0-----0-0-0
0-0-0-0---0---------0---0---0-------------------------------
------------------0--01--000-0-0-0001.*10-0------0-------0-0
0-0-0-0-0---0-----1---.---1---0-----------------------------
----------------0--10--0*1-100-001--000-01--0--0-0-0-------0
0-0-0-0-0-0---0-0---01---1--0---0---------------------------
--------------1--00-0**1.0-0-0-0--10--00--10-010-0-0-0------
0-0-0-0-0-0-0-*-0---0-.01--0--0---0--01---------------------
------------0--10-00.*0*.0--00---0---.*100--01-100-0-0-0---0
0-0-0-0-0-0-0-1-00*---**.111-1--0----1*-0-------------------
----------1---1--0-**----**.1010-----1*--100--10-010-0-0-0-0
0-0-0-0-0-*01-.-*-.*.*.0*-..-.----0-0---0-------------------
--------0---10-0*11***-...***1---.-----001--00--0--100-0-0-0
0-0-0-0--00-11---11-1....1--.*01110-0-0---------------------
----------01--10------*-.*10---1--.---00--10--0---0--0-0-0--
0-0-0--10--0--11---0--.--1111-0*---0------------------------
---------0--0*1-10--1-*-.-0----.-*-101--00--0---0------00---
0-0--01--1---*--11----1--111-.0--.1--1----------------------
-------1---.0-101000-010--01-*-.--01--10--0---0-------01--1-
0--10--0-------0--10--.00-11--01---0---0--------------------
-----0-------.-00111*0--.1-100-101--00--0---0-------00-11.--
-01--1--0-00-*------1-1-.11-01---1---0---0------------------
---1-----0-*--..-1101.1*100--0-1--10--0---0-------01-10000--
---0---10-**--..1--.0-11.-000--0---0---0---0-----------0-0-0
-0---1110*-....-**0.11-0.101-----0--0---0-------00-000--1-01
-----*1*1.-...1.0--1--11..*--10--0---0---0---0--------0----*
---.1.-*1*...***1-..---.*.0*-0---0----0-------01-10000..-*-*
---1---10***-.-0-..1-0--*--10--00--0---0---0-------0--1*-111
-00--1*1--..*---11*.-*-01000-------0--------00-11.-1-.0*...*
-0---1----1-*-*.*-.10100--1--01--00--0---0---------0--0*-.**
0--011-1*.*.1*-*...*11*--*--0--.-----0----0---00-0---...-01.
--10--001-..0-.*.*---0-10---0--11--001-0-------------0-11*11
--1--001--1.-.--00.--1-0--0----.---1---0----0---00-0--11.1-1
0-0--0--**--1*-1.111*-1---0---..-0**-010-----------------.-0
----1--01--*0--0-*.--1--00-------1---1---0----0---00-0---**1
----0--00-111--1*---0-11--0-0---11-00----1---------------0--
------1--00--111-1-0--11-0-----0-----------0----0---00-1-.-0
0--------10-1-1-.-1-0**1-*--0001---11-111.-0----------------
--------0--011-***--0--0-0-0-1---1-.---.-1---0----0---00-0-1
0-0-0-------0-000-10011.-00*1-----*1*.*------1--------------
----------1--000--0----*-1-.-1-----1-1-.-------0----0---00-0
0---0-0--1--.11-.111*011--000*1.---.**0*0-011*-0------------
------------0---00-------1-----*-.-*-0-0---0-0--------0---00
--0---0-0--0---.0011.100*----00-1*010-0-0000-0-0-0----------
--------------1----1---1-.-1----1*-0-0-0-*-0------------0---
----0-0-0-0--1-1-100001-1-1-00*1..**0-011*-0-0-0-0-0--------

Generation = 21, Population = 1348.
-------------------0-----------01.-...0*1-----0----0-0---0--
------------------0-0--------0-0......*.**---100--0---0-0-0-
-------------------0---------*-***1-**.-*.*.0-1--1-0-----0-0
--------------------------00*-.-*-10-.*.*.*.*-.*---00-0---0-
---------------0------00-0-00-.0..*1*00*..-**.-101--000-----
--0-----------0-0----0*10---1*.-..0**...-*..**..1--1-0-0--0-
-0-0-----------0------00-0----..-.**-.....-**.00.1-0-*0--0-0
--0----------------------01-*0-*...*-*.**..*..-1-*..10--0-0-
------------------00-----10.*.**1..-.0.-****1.1*0..101010-00
0-----0----------01*0--0-.*....-****.-10*......*.....----.-1
-0---0-0----------00--00-10.*-1.**-*-.--*--**-.-1..---010000
0-----0--------------0-0-11-1-**...**-1*1**..*-.*-*.0100----
-------------------------0----.*1*.**0..11-.****-*---1-----0
--0-----------------00.0-----1.1.*.1*1.*-.11....-0--0--0--0-
-0-0--------------00-0.---001--*1-..0**1-1-*-------10-0----0
--0--------------0-00---.0-0-110.-.*.1.1-**.1--*--00--------
------------------0---0---0---1---...0----0*--0*-10---------
---------------------0--00------.**....----.*--100----------
---------------------0*1--0--01-1*0.-1.1-0---0-0------------
----------------------0*--------1-****.1--------------------
------------------0-.1.*-*------00-11*-*0--0-0---0----------
------------0-----**-*.-0.*.-00-----.*.1-00-0-0-0-0---------
-----------0------.-...-*.*.--00-0--0---01-0-0---0-------0--
-----------00-00-0-.-*1..-..1-01-..*.0*--*-1------------0-0-
-----------*-010--.-*--**-***----10--*-1.0-----0------------
----------*0-1-11-11***.*.1.00---*1*.1-.--**0*--0-------0-0-
------0---1.*1.*.*.-.**...-.-0-*1-*0**....00---------00--0--
-----0--*-1*-1**.*-.*.*.*1-**1*.0*-.-.....--1*-.0---01*0----
------0--*.-1*..-...*-..**.*---*10-1--.-.-..01-0-----00-0--0
----0--00-1.0-**1--..*..*...**..0.-..1..1.-.*..*0.-1---1-00-
--00-0.-*.*1........*....*..**.-*.--00.-*1-.------0----00-00
-0-00---*0.-*1...*..*........*-*..-..**...-.--0----*-10-00-0
--0---0--.-1*..*.**1*.**...0.*-.--*1-1.--1-1-----00-0--0--0-
-------0-01**1.*.*1*.......*10**-*....-*.*.1----0-0--0---0--
-------.1--.0-.*--10.*.*.*.*.*-.*.***.-00-0------0--0-000--0
-----01-1..**..-**-*--.*.*1-10-.-.-.0.--**0----------01**-*-
------.*1.--*.-*.*-1..*-...-*.*-*...-.*1010----------000-.--
-----01.0-**--.-.*-*-..0--.**.*.10-.0**-1-----------01-*.*.*
---.--0...1*-0*-*..-**.-.0*.01.-.*.--1--0----------0-*--1*1-
0---01*.-.*11..--.*.......-*--11*-.*1*-0-------0--01*.-...-0
--.01.-...1-*.1-..-*-*....10-.-.**00010-------0-0---1-*.*.-*
01-...10.--.*....*.-...*-..-0.0.01.0-0------------1*1*..1-..
--..*-0*.*..--*..-0.1*.....-.0-*--0-000----0-0----1--*0.*-*.
0.-.***--.1.**...*-*..1-**.-..--0.--0-10--01--1--.-.-*-0*..*
-.0.0**..*.*..**.*1*.1.***...-*0---00---0-0*0*0*-11*-0-1-*-*
-*-*.*-*1*.......-.*.*....0***-10.0---00-0---0*.0*0-......-*
00-.-.-...*.******...1*..-0.-*0*100-0100000--1000110*--..-.*
01*-.**1.*...-.1*.*...-..1.--**-01---00*0-101.-..***-.*.....
--*-*1*1*.****........*1*1*1-.*---1--.0------0---0*.-*..0.*.
-1*1*.-1*...**1....*.**.*.---*..-.-.-.0-00----.-01-.-*..*-*.
-0.0---..-.*.0.....*.-111*00*-..*11-1.1-*0-0-0--00-*--1**.*.
1-1-01*..***-.*.-.**-*..-11-.1*..1-.1.*.*-0-0-00*-0-*-.**...
00-0-.0...1-.*-**....-.---*.--...*...**-*-10----010--*0**.01
-001.-***-1*----...**.--.*---*--1.100*0*----0--0-0*.--*0*.*1
00-0*0-0--**.-*...-1.--...11*.*..-...-.*..*1----00-1---..---
--0-0---11-0-***-.0-....-*11*-*--*0-1-11-.11----0-001*-1...*
------0*-.1*.****0*.-**..*1..*-*-.*.......*1--0--0--0---0*0-
------0--1-.-.1.*.*--1*.0.0.0*1*-10.-*-...**-1------0-*-*-1*
-----0-0---*1------1-..*-*0.*.01-*.*.*.-11*0..----------0-00
---0--00-0*.-0*.1*.*-*-.*.-*-.-*1.0*....*-*.1*0-----010-*---
--0-0-.--1-*.-...-.-.-*-...*-*..-.-...1..-*.1*------010-00--
--00---0*1.-*..-*.---11-*.1*--*.-.1*01.-0.---0----------0-1-
-0-0---.--11...*..11...-*0-..**-**-*-*-*.--111---0--0-00---0
--0---000000.-*--0-.1*....1*----.*...-1*1*00--0-010--00--1--
-----01-1001*-**-.---0**.-*1.-...**.*-....-.1--0010----00*00

Generation = 28, Population = 1354.
--0-------------------0-*.0--0*...-****.-1-*0---01..-0-1----
-----------0---0--11..*--.10*.-....*...*..**1.-.-...---..10-
0-----0--------------1-**-010.**.**....-.**..-.1-.-*--1-----
--------------------1-*-*.***-.*....-...*......*-*...--.----
-------------------1010*1**..1.*.*.*.0*..*..**..1.10-.*.0-00
-------0------10--011**.*-01*.**..*.*...1...****.0..11**-.--
--0-0-----0------0001---1**01-*****.*...*........*..*..-*-*0
----------------0-.--0..0*1**.-....*-....*..**-.-.....-1*-**
----------------1---0.-.-.-..*.*1...**.**.*.*...**.*...--.--
----------11-----.....-*1*.*.*.*.....*.-..*....*.....**.*...
0-----0-0-----1----10-1.-*-*.1*...-.-*--.-...-.1....-01**00-
--------------0-11.00-**....*0.......*....**..-**-...*.1...-
-----------------0---*100*1--..**....-..-.-.***.**--.*-01*--
--------------*10-.-.-*.-.*-1*.*.*.*..*.*.*....*--1-.-*....-
--0-0-----0---.-*-.*....1**..-...0*.-.*...0*-.1..-*1.--1--1-
----------0--1--.1--*....-.*.*...**.*.**1..*.1...-*..1--1-0-
-----------1*-------*-.-.*11*..******........1*..-00--------
----------1-1*-1-0.*.1.1..1-1-*1....*..1.1**.0-.**.1------10
0-----0--10.-0---.01-...--..1-..*...1..*1*-00--.*.*01--1----
------0-11-*1*1--.*--...*..--.1*.**....*--0-*11-1.110-0-----
---------1-.-.--.**-..*.**11-.1-0..*..**.00*0-*.-*0--1------
--------10.-..-1-.*..*.*.**.--.1-1.-**...1.10-11-.-0-11-10--
--0---.10--.1-----*.*..*..**.-.0*--1.**0...*-0000.----1-----
--0--1---11.-*01*...-....1***.*.1*..**....-*0--01*-0-1-0--1-
---1-01--*..1*.1--.-.*1**....1-**---..**.-1..1-1-*--0-10----
--1100..1..1..1..-.**.*.*...*----.1..-..**..0...-.---.-*0---
-1-.**.-.*1........*.**.....1.-*--.-..*.....---1111..--0.11-
----.0**..**1.............0*....-.-.-.*...-**....---.**.-0-0
*-0-.00.-..*1........0.......--**-*-*-.-..*.-*-.-*-.10---*10
*0*-1--.1.*.**....-.............-..*.*..*.-***......---*1-0-
*0.-.-..***....**..***....*.....**.-*-....**1--1*...0*-.0-00
*1--.-.0***....**....*....*...1...*.*.....*.*10--1..0..-..**
**-1**..-.-1........*.*..*..**.*--*.0..--.**0*0*-*-.1**.**.-
0-0-.1.-..-*..*...-......*..*-..1.*...-.**..--*-.0*0.---..*1
---1--1**-*......-........***...**...*1*-*.-0-1-.-0.00-*..--
-1..*..*......*...1..***....**0.*.*..***.*1*0-*-1-.101.*.-.*
-0*01.....-*..**.*1*.*..*...***-....-...0*0*01-01-01--.1**-.
100*-.*..-***..*..-.0...-**.*...*-..*.*-*1--.--*-011.**.*...
0--..1-*.....-*1.*.*...-..**-***..*.**01*..----.-1-.0..***.-
1.-1*..**...-.*01*.......*.*1*...*..*.-1.--*1--*0--*....***.
01...**..**-.*..***.*.*...*...*...0*.11..-*.-..*-*111**.*.*.
**-...*-****....**.*.......*-**.-...1*.---0-1-.-.1***.......
**........*.--..*.-*......***0-...-.-.-.0*1.--0*.*.*1*...1..
*.-.*.*.0*..*...*.*.*.-....**..11.*-.-..-*-.**.-..1*-.-...**
*...-.***...*.*.*.....*....*.-.11.*-1.-..0-.1.*..*..*....*-*
-*-..*..*..*...*.0....*...-.*.*...-0*..--.0-0...*.1..****..*
.1..0.1**.*.....**.*...*..-*..*.*.*1.**...*0***-**-.....***.
1*.*.**-...*.-..****..-....-1*.*0.1.*10.--*-..-.**..........
.*...**.......*..*.**..**.*...*..*****1*1-.--*..1...***.....
*.....-.........*...**.*.**.**.*1*-..*-0-0*--...1*-**..**-..
*-.1.-****..*.*......*--...0**.**..-..**.0--0-**.*1.1-......
.*-0.-....***.......-*..1.*-*...*1-.*..*...0...-*1.0.0*..*..
1-****-...11**...........0*.*.*.*..**..1.--**-..-....*****0.
*.0*......*.1-0*.****.0**.**-.1*-.*-*...1*11-.1*1...**.**...
.--0.*..--...-.....**-*...-*.*.............-.0.-*--****..-0-
*11..-1...--***.-.....*.-.**...-..-**...-...--.*.-*..*-.*.**
10-11-*.*..****......**...*...*.-....**...*.*0.-0*0**--.*..1
0-11..*-.--.*..*....0***1.-.*..*1*-*-*.*...*1.1-.1-..-.-*-*.
--1-.1.--0*.*-..1-....*.*.***.-.-....***--.-.*.-.0*.0*--*.-1
0-1*.1.-.0..-**.*.......**-....*.*-.*...*0..-.*.--*.-.--.*1.
--.-0*.-**...-****...*.**.*.-...0.1*..*.......-----*-*10..-*
-1-*.**1.......-*...-..-.*....*.1...*..*-..-.--.11*0-*1..*1.
-00...-....**..**...**...1*.**......*.*...1-1*--.*11-*-..110
--0--001..**...--...*...*....1.*.....1....-1--0*------.--**-
--01*.1**1**.-..1*.*00..*-.**-**......**..0*.*-***-*0--*0.--

*** Life<Cell> 22x30 ***

Generation = 0, Population = 22.
--------0--0------------------
------0-----------------------
------------------0------0----
---------------0--------------
----------0-------------------
---0-------------------------0
------------------------------
--------------------0---------
------------------------------
------------------0---------0-
------------------------------
---------0--------------------
------------------------------
------------------------------
----------0----0--------------
----0-------------------------
-0----------------------------
------------------------------
-----------------------0------
------------------------------
--------------------0--0------
0-----------0-----------------

Generation = 5, Population = 239.
--0--0--01*--00-00-0----0-0--0
-01*-0--101-0-00--0--00--0--01
--00--00.0-*00-0---0-**0----0*
------0---0-0-----01*-0------0
-----0*0-00*00-0--000----0-00-
-----0-1---0--0--0*0----0*-110
------00-0-----00010-----1000-
--------0-----01100----0------
---0-------0--000-----0-----00
--0-0--------0-------0---0-011
---000---0-0-0--0---0-0-0---00
-0-0110---0-0-00---0-0--------
0-0-00-------0----0-0-------0-
-0----0----0--0--0-----0---0-0
0----0-0000-11-0----0-0-0---0-
-----000*100--0----00---------
0-0-0-0-00--0------0-00-0-----
-----0----00-0-0---00--0---0--
----0----0-0--0-0-0-1-----0-0-
---0-0----00-0-00---0--00-----
--------0---0--0100**.1.100-0-
-----0-0-0-----010-00--00--0--

Generation = 10, Population = 227.
*1*1***--*.-.*1*--11--11--0-0.
......11-*.-.-1-----10.000---.
--0-001*..-.11--*--.-...--000.
0-*----.-.*.1-1--1--.1-00*010*
0-1-.0.1--..**-1-0---11--*-*1-
-0-11..-*1-*0--1--.11-1-......
-00-11.1.0**10---0--------0*--
--01-1--------0-----00-0*.1-1-
---0--1-01---0-.--0----0-*-0--
-*-------------1-01-----011--.
-*------0-10----0----0---0-0--
1-----1---1-0--1-1-01---0-0--0
--0----00-.-1-0---0--11-------
-----0----1-*.---0--1------0-0
0-.-0-----0*..*1----*0---0----
0-*10---.*-.0*-0----.-0-----00
--10---0---1-101---1..*.-0---0
0-0------110-0-------0--0-0---
-0---0---11-11-1.--.-.1-.-000-
------00-*.-*---*-1.1*1-*1101-
---0----------1.---...1..*.---
----0----1---0**.--*1----010--

Generation = 15, Population = 317.
.-.-...-1*......*1*.*0.1-1-.1.
....*.*--.*0.-.1.**1*-**-1*--.
-11**-...*....**..-*0**.***.-.
*-.*-0*.0*..*-11*.0-**-*-..-*.
1..1.1.-*.**.*-**1-01*10-*-**.
*.1.-....1-.1*1*11*..*.0*..**.
0-00....*0*.**-.-1*.*...*.**-1
-*0.-.1-*001*00**.10*.**.*.-*-
---.-*--**.1.-.*-11-1-0.0.0*--
0.--11----.--.*.-1100.11.*..-.
*.*0*11*-0.--*-0--*1-1**-*--0-
*---..-1--***-.*0-1.**0001*1*-
1.-0---*.-.0-10-*--0*.**--1.01
*--*1-.*-..****1--10*1011.-11-
...**-1-1*.**.*.-*--.-0011*.*-
.0..**.*..1...0.0-1-.-*100----
1-*0011*---.-.*.-0-.*.*.--1.**
1-----0-...-.1101-.-0-1.1-*--1
-----0--***1.-.-.--.-.*..***1-
101--1*..*.-.-...*1...**..*-.*
0010--0*1*-*11.*1-....***..-.*
-0100*-11*-10**.***..--**1-.--

Generation = 20, Population = 246.
.-.1...-*.....****......-.1*1.
..****..*..*.*.......*....**1.
0*...*............*.-....*..-.
*-..**...*.**--...01**.*......
**.....**.**..1..-1.....-.-..*
...*1**..*-*1*.*.**....*..*..*
.*.*.....-.*..1..*.*...*...*.*
1.1.*.******..-.*..-.*****.-.*
-1*.1.1-...*...*...1*-0.-***--
..*1*.**-.*1*.*.1-*-**.-..***.
.*.0**-..1..1..**0*1*1*.-*1-1.
*.11*.*-*-***...--.*.*101..-.-
.*-.-11..-.*-.--.**-.**.-1.*-.
.0..*0....*....*11*-*--1-*.**.
...*..-...*...*.1.****---....-
.-.*......-*.*-.***-*0..*.-01-
.1.1*...-0*.-.....1*....--**..
*--0*0.-.**-...-.**1-.*.--*0*.
1.-0..1-.....**..*-*..**.....*
...*......*1..*..*......***1.*
1.*.-1-...-**-*.*1......*..1.*
*-.*-..-..1**.*.*....--.....-*

Generation = 25, Population = 223.
.-...***...*............-.-*..
..**.***..*..............*..1.
-**..**..*.....*....0**.*..*..
.1**.*****...1.*..--..**......
..***.**......-.*....*.*-.**..
***.*.*...**1.***......*...*..
**.*.*...-*.**-*........*..*..
*.....**.**.*.1....0....**.**.
*...*.*0.*.***.......--.0*.*.0
......*.-.*.**.**-.-...-.****.
...-*...*1*.**..*-...-.***-1..
.**..*.**-*..*.**-.....-.....1
.*-..*.*..**-.11.*.1.***1*..1.
.1*..-.*.***.*..****.-0*..***.
..*..**....*.*...*....**.....*
***.**.*..*.*.1*.....1.*.....*
.*...**.-1..**.....*..*..-..*.
.-*-...-.*.....1***...**--.1..
..--.*--.....**.*.0...*.*.*.*.
**.*.*.....-...***......**.-..
...*.1-...-**-...1.......*...*
**..-..-.............--...*.-.

Generation = 30, Population = 160.
.1..................**.*-...*.
**......*..........*...**...*.
0.*....*.*****...*..*..*...**.
**....*..**..*..**...*..*.*...
.......**.....*....*....*..*..
...........**.*..*.......*.*..
........***.**1...........**..
........**....*..*.-..........
.......0*........*...-1*-....-
..**.*..*....*...1.-...-....*.
.*.*........*****....1*.......
.........*.....*............*1
..-.*......**.*....**...-.....
.1..*..****.***..*...1*.......
....*.*..**..******...........
.....*...**.**..***.*.*....*..
.........*...*.......****-**..
*-***..-................11.-..
**.**.*-.....*...**...........
.****..*..*..*...**........-..
.....***..-**.................
....-..-.............--.....-.

Generation = 35, Population = 150.
**.............*.....*.*0...*.
*.....***......*.......*...***
**............**......**...***
.........*...........*........
.....*....**.......*.*........
.....*.....**.....*...........
......*..*.**....***.....**.**
.......**..........0......*.*.
.......*.............-..1..*.-
.......**..*.......-*.*-......
......**.****.***...........**
....***..*....*.............**
..-*...*.**.****..**....*.....
.-.*...****....***.***........
....**..*****.......*.........
.....****..*.......**.*.......
.....*..*...............*.....
**....*1..........*.*...-..-..
..*...*...**.....*.**.*.......
**.......***.....***.......-..
.....***....*.................
....-**1..**.........--.....-.

Generation = 40, Population = 128.
...............*......***...*.
......**......*.*....**.*..*.*
..............*.*...*......*.*
...........**..*..******....*.
.......*..***.....***.*.....*.
......*.**.*......*......*...*
......*............*.....*...*
.........*........***....*...*
.....................-..-..**0
....**.**..*.......1...-....*.
...***....................**..
...........*...*****..........
..-**.*.....**.***..*.........
..*.*.*.....**...*..**........
...........*.*..*..*.**.......
................****..........
..................*....*......
..........*...........*.-..-..
.......*.***.......**.*.......
......**.*..*....*...*.....-..
............*.....***.........
......*...**.......*.--.....-.

Generation = 45, Population = 154.
...........................*..
............**......*.*...**..
............**......***..***..
.......***...*.......*.**.*...
..........***..***..**..*..*..
......*...*.**.******......*..
......*****.**..*..**....*.*..
.....*............*......*.*..
......*.*............-..-.**.-
.....*.**....*.....-...-..***.
.......**...*.*...........**..
.**....*...*........***.......
.*....*.....***...**.**.......
..*...........***.**.**.......
...............*.*..*.........
..........*....***.**.*.......
..........**....*...*..**.....
......**.*.*.....*...*...*.-..
.....*.**.............****....
.....*...**.**.........**..-..
.....*.*.*..**.....*.**.......
......**.*.**......**-*.....-.

*** Life<Cell> 56x23 ***

Generation = 0, Population = 30.
-----------------------
-----------------------
---0-------------------
-----------------------
0-0--------------0-----
-----------------------
----0------------------
-------0---------------
------0----------------
-----------------------
-----------------------
-----------0-----------
0----------------------
-----------------------
-----------------------
----------------------0
------0----------------
-----------------------
-----------------------
-----------------------
-------0---------------
-----------0-----------
---------00------------
-------------0---------
0----------------------
-----------------------
---0-------------------
-----------------------
-----------------------
-----0-----------------
-----------------------
-----------------------
-----------------------
-0---------------------
-----------------------
---------------------0-
-----------------------
-----------------------
-----------------------
-----------------------
-----00--0-------------
-----------------0-----
-----------------------
-----------------------
-----------0-------0---
-----------------------
-----------------------
-----------------------
-----------------------
------------0----------
-----------------------
-----------0-----------
-----------------------
-----------------------
-----------------------
0----------------------

Generation = 5, Population = 307.
--*10-----------0-0----
0-000--0---------0-----
--.0-0010--------------
0-0---010----0-------0-
--..-0-0----0-0-----0-0
--000---0----0-------0-
-0010--0-0-------------
0-010---0-0------0-----
---0-----0-0----0-0----
----0-----0------0-----
---0-0---------0------0
--0-----------0-0----0-
-0---0---------0------0
--0-0------------------
-----------0------0-0--
0-0----0----0----0---0-
---0--0-00-0------0-0--
0-0----0-00-0----------
--------011--0--------0
0--0--0--0000-0------0-
-00-00----0-00-0------0
0----00-0--0-0--0------
--0--11--1--1*1--0-----
--0000000-0--00-0-0----
-0.---0-01-0-----0-----
--0---0--0--0----------
-----10--11--0---------
0------0-00-0-0--------
-0-------0---0---------
0--1----0-0------------
--0-0----0-----------0-
---0----------------0-0
-0-------------------0-
0-0--------------------
-0---------------0---0-
-----00--0------0-0-0-0
-0--01100-0----------0-
0-0--00--0------0-0----
-0---------------0---0-
-00--0---000-0-----00-0
01*1..1-1*-1-10---0-0--
-00--0---000010----10-0
-------------0-------0-
-----000-0-------------
----01-1--0-0----1-----
-----000-0-0-0--0-0----
-----------00----0-----
----------010------0---
--------0-0*0---0-0-0--
-------0-0-.---0-0-0---
0------00------00------
-0----0-0---.-0-0------
-------0----0--0-------
-0---------0-0---------
0-0-0------00----------
-0---0----0-0----------

Generation = 10, Population = 392.
.0*.-0--0--0-----0-----
100*---.---1-----------
*0..1.*-0-1--0-0---0-0-
0-.11*1-1*-.-0---------
1-..-*...0.------0-0---
---*0-1-1--0---0------0
0.11*1--00-----------0-
----0--------0---0--0-0
0-0-1---0-------0------
---*-----------1---0--0
-01--0-00-----0--1-----
-0---0-----0-----*---0-
--0001*-*------0---1---
---0---1-1----0-0--0---
0-----0----00-1--0-----
-----0---11-1-100-0----
---0----1--00---1------
-------00-*0001-0------
00-.-011**.11000-------
---1----000-1------0---
.*11*----0*1-11---0----
-1---.----0--001-1----0
--.1-..-1---****-.-00--
11-0-.---1-0-100----1-*
*-.1*1--11-0--1--00----
0-0-0*0--*---0--------0
--01..--..-*-0---------
--1--.-1-*-1-0-----0---
--1.001.1*-1-----------
---1-------0---0-----0-
1----00-1.-00----------
-1---1---0---0-0-0-----
0-0-1---1.10-----------
---*-.---.-0---0-0-0---
00----1--1-0-------0---
---------0-1-----0-1---
---0*--------1---1---0-
-001-0-0-1-------0-----
0*---.1--.*10*---0-0---
-.11.1-1-0-1-*-0---.-1-
1*....--..-*..---*-----
-111.11--00.*-110-1.-.-
0*-10**1-1*0-.0--0-.-0-
-0011-00-1-.*0----0010-
-01*1.1-1-1.10---------
0--100-0---*0--------0-
---00*---1-.-----------
--0-01---1--.-0--0--0--
---00-.1-.0.11-0-------
---1--**11-*.1**--1---0
-----00---01.11----1---
00--10--.*-**1*1.--.10-
---------00--01--0---0-
---0--0-0--..------1---
-----------0-------0---
----0---------0--------

*** Life<Cell> 1x27 ***

Generation = 0, Population = 10.
-00--00---0----00--0--0---0

Generation = 2, Population = 9.
1------1----001---1-11----0

Generation = 4, Population = 15.
1-1--1---001*-.*--10.*100-0

Generation = 6, Population = 11.
--111---1*0-.-..*-**..-0-0-

Generation = 8, Population = 9.
1*.-.*-***-*.-...-....-0-0-

Generation = 10, Population = 2.
...-..-...-..-...-....-0-0-

Generation = 12, Population = 2.
...-..-...-..-...-....-0-0-

Generation = 14, Population = 2.
...-..-...-..-...-....-0-0-

Generation = 16, Population = 2.
...-..-...-..-...-....-0-0-

Generation = 18, Population = 2.
...-..-...-..-...-....-0-0-

Generation = 20, Population = 2.
...-..-...-..-...-....-0-0-

Generation = 22, Population = 2.
...-..-...-..-...-....-0-0-

Generation = 24, Population = 2.
...-..-...-..-...-....-0-0-

Generation = 26, Population = 2.
...-..-...-..-...-....-0-0-

Generation = 28, Population = 2.
...-..-...-..-...-....-0-0-

Generation = 30, Population = 2.
...-..-...-..-...-....-0-0-

Generation = 32, Population = 2.
...-..-...-..-...-....-0-0-

Generation = 34, Population = 2.
...-..-...-..-...-....-0-0-

Generation = 36, Population = 2.
...-..-...-..-...-....-0-0-

Generation = 38, Population = 2.
...-..-...-..-...-....-0-0-

*** Life<Cell> 12x5 ***

Generation = 0, Population = 18.
0-0--
0----
-----
-0---
-0---
---0-
00--0
--0-0
----0
--0--
0-00-
00---

Generation = 1, Population = 32.
1--0-
100--
00---
010--
0100-
0-0--
11--1
0----
---01
001-0
10-10
-1-0-

Generation = 2, Population = 28.
*---0
*11--
110--
1----
1*-10
--1-0
**-0-
1--0-
-0-1-
-1*--
-10--
-*-1-

Generation = 3, Population = 38.
*-00-
.*-00
**-0-
-1000
-*0*-
-0--1
**01-
*00-0
-10*1
0*.--
1*---
0*0-0

Generation = 4, Population = 29.
.01--
..111
*.0-0
-*1-1
1.1.0
--10-
..1*1
.-1-1
0*1.-
-..00
*.--0
-.1--

Generation = 5, Population = 24.
.1--0
..*--
..-0-
1.*--
-.-.1
00*-1
.**.-
.--0*
1*-.-
-.*1-
..0-1
0.-10

Generation = 6, Population = 25.
.--0-
..*-1
.*0-0
-..-1
-.-.*
11*-*
*...-
*--1.
**-.1
0.**-
.*1-*
-.-*-

Generation = 7, Population = 22.
.----
.**1*
.*---
-..0-
1*1.*
--.-.
*.**1
*-1-.
*.-.-
1...0
.*--*
-.-*-

Generation = 8, Population = 30.
.1100
.**-.
.*--0
1..--
****.
-1.0*
..***
*-*-.
*.1.1
**..1
..1-*
-.1.-

Generation = 9, Population = 27.
.-*-1
*..-*
**-0-
*..01
*..**
-*.1.
....*
.-*-*
*.*.*
*.*.-
..*-.
-.**0

Generation = 10, Population = 26.
.1.-*
*.*-*
**-10
*..1-
**...
-.**.
..*.*
.0.-*
..*..
..*.1
..*-.
-.**1

Generation = 11, Population = 29.
.-.0.
*.*1*
*.0--
...*-
**.*.
1.**.
.**.*
.-*1.
.**..
.**.-
.**-*
-.***

Generation = 12, Population = 28.
.-*1*
..***
..110
*..*1
**.**
*...*
....*
.0.*.
.....
*...1
...1*
-**.*

Generation = 13, Population = 26.
.1***
.*...
.*--1
*...*
***..
**..*
...**
.-...
.....
...**
.****
0.*.*

Generation = 14, Population = 23.
.-**.
**..*
**11*
*.**.
..**.
*...*
...**
.-...
.....
....*
.*...
-.*.*

Generation = 15, Population = 15.
.-**.
*...*
..***
*....
..*.*
..*.*
...**
.-...
.....
.....
...*.
-....

Generation = 16, Population = 15.
.1.*.
.*..*
.*.**
.**.*
.*...
..*.*
...**
.-...
.....
.....
.....
-....

Generation = 17, Population = 16.
.**..
**..*
**..*
**..*
.*...
..*.*
...**
.-...
.....
.....
.....
-....

Generation = 18, Population = 16.
***..
...*.
..***
..*..
****.
..*.*
...**
.-...
.....
.....
.....
-....

Generation = 19, Population = 9.
.**..
....*
..*.*
....*
.....
....*
...**
.-...
.....
.....
.....
-....

Generation = 20, Population = 8.
.....
.**..
....*
...*.
.....
...**
...**
.-...
.....
.....
.....
-....

Generation = 21, Population = 8.
.....
.....
..**.
.....
...**
...**
...**
.-...
.....
.....
.....
-....

Generation = 22, Population = 7.
.....
.....
.....
..*.*
...**
..*..
...**
.-...
.....
.....
.....
-....

Generation = 23, Population = 5.
.....
.....
.....
....*
..*.*
..*..
...*.
.-...
.....
.....
.....
-....

Generation = 24, Population = 2.
.....
.....
.....
...*.
.....
..*..
.....
.-...
.....
.....
.....
-....

Generation = 25, Population = 0.
.....
.....
.....
.....
.....
.....
.....
.-...
.....
.....
.....
-....

Generation = 26, Population = 0.
.....
.....
.....
.....
.....
.....
.....
.-...
.....
.....
.....
-....

Generation = 27, Population = 0.
.....
.....
.....
.....
.....
.....
.....
.-...
.....
.....
.....
-....

Generation = 28, Population = 0.
.....
.....
.....
.....
.....
.....
.....
.-...
.....
.....
.....
-....

Generation = 29, Population = 0.
.....
.....
.....
.....
.....
.....
.....
.-...
.....
.....
.....
-....

Generation = 30, Population = 0.
.....
.....
.....
.....
.....
.....
.....
.-...
.....
.....
.....
-....

Generation = 31, Population = 0.
.....
.....
.....
.....
.....
.....
.....
.-...
.....
.....
.....
-....

Generation = 32, Population = 0.
.....
.....
.....
.....
.....
.....
.....
.-...
.....
.....
.....
-....

Generation = 33, Population = 0.
.....
.....
.....
.....
.....
.....
.....
.-...
.....
.....
.....
-....

Generation = 34, Population = 0.
.....
.....
.....
.....
.....
.....
.....
.-...
.....
.....
.....
-....

Generation = 35, Population = 0.
.....
.....
.....
.....
.....
.....
.....
.-...
.....
.....
.....
-....

Generation = 36, Population = 0.
.....
.....
.....
.....
.....
.....
.....
.-...
.....
.....
.....
-....

Generation = 37, Population = 0.
.....
.....
.....
.....
.....
.....
.....
.-...
.....
.....
.....
-....

Generation = 38, Population = 0.
.....
.....
.....
.....
.....
.....
.....
.-...
.....
.....
.....
-....

Generation = 39, Population = 0.
.....
.....
.....
.....
.....
.....
.....
.-...
.....
.....
.....
-....

Generation = 40, Population = 0.
.....
.....
.....
.....
.....
.....
.....
.-...
.....
.....
.....
-....

Generation = 41, Population = 0.
.....
.....
.....
.....
.....
.....
.....
.-...
.....
.....
.....
-....

Generation = 42, Population = 0.
.....
.....
.....
.....
.....
.....
.....
.-...
.....
.....
.....
-....

Generation = 43, Population = 0.
.....
.....
.....
.....
.....
.....
.....
.-...
.....
.....
.....
-....

Generation = 44, Population = 0.
.....
.....
.....
.....
.....
.....
.....
.-...
.....
.....
.....
-....

*** Life<Cell> 32x3 ***

Generation = 0, Population = 21.
0-0
-0-
-0-
---
--0
---
---
---
0--
---
-0-
---
---
---
---
--0
---
-00
-0-
---
--0
---
000
0--
---
--0
0--
---
0-0
---
0--
---

Generation = 9, Population = 45.
11.
-*-
*.-
..-
-*.
1--
---
---
--*
00*
.-.
..-
-0-
0.1
-1*
*1*
1.-
*-*
*-*
*..
---
*.-
-**
*1-
*1*
*0*
-*.
00-
-1-
001
-1-
-01

*** Life<Cell> 43x47 ***

Generation = 0, Population = 5.
--------------------------------------------0--
-----------------------------------------------
-----------------------------------------------
----------0------------------------------------
-----------------------------------------------
-----------------------------------------------
-----------------------------------------------
-----------------------------------------------
-----------------------------------------------
-----------------------------------------------
-------------------------------0---------------
-----------------------------------------------
-----------------------------------------------
-----------------------------------------------
-----------------------------------------------
-----------------------------------------------
-----------------------------------------------
-----------------------------------------------
-----------------------------------------------
-----------------------------------------------
-----------------------------------------------
-----------------------------------------------
-----------------------------------------------
-----------------------------------------------
-----------------------------------------------
-----------------------------------------------
-----------------------------------------------
-----------------------------------------------
-----------------------------------------------
-----------------------------------------------
-----------------------------------------------
-----------------------------------------------
-----------------------------------------------
-----------------------------------------------
-----------------------------------------------
-----------------------------------------------
--------------------------------------0--------
-----------------------------------------------
-----------------------------------------------
-----------------------------------------------
-----------------------------------------------
-----------0-----------------------------------
-----------------------------------------------

Generation = 8, Population = 20.
------------------------------------0-----0----
-----------------------------------------------
-------------------------------0---------------
--0-------0-------0----------------------------
-----------------------------------------------
-----------------------------------------------
--------------------------------------------0--
-----------------------------------------------
--------------------------------------------0--
-----------------------------------------------
-----------------------0---------------0-------
----------0------------------------------------
-----------------------------------------------
-----------------------------------------------
-----------------------------------------------
-----------------------------------------------
-----------------------------------------------
-----------------------------------------------
-------------------------------0---------------
-----------------------------------------------
-----------------------------------------------
-----------------------------------------------
-----------------------------------------------
-----------------------------------------------
-----------------------------------------------
-----------------------------------------------
-----------------------------------------------
-----------------------------------------------
--------------------------------------0--------
-----------------------------------------------
-----------------------------------------------
-----------------------------------------------
-----------------------------------------------
-----------0-----------------------------------
-----------------------------------------------
-----------------------------------------------
------------------------------0---------------0
-----------0-----------------------------------
-----------------------------------------------
-----------------------------------------------
-----------------------------------------------
---0---------------0---------------------------
--------------------------------------0--------

*** Life<Cell> 2x28 ***

Generation = 0, Population = 7.
-0--0--------0--------------
--0--0-------0-0------------

Generation = 9, Population = 23.
-..*-*--..-**.*.-.110*00----
-.-*-**1.1**-.-.-.*001--0---

*** Life<Cell> 2x1 ***

Generation = 0, Population = 2.
0
0

Generation = 2, Population = 2.
*
*

Generation = 4, Population = 0.
.
.

Generation = 6, Population = 0.
.
.

Generation = 8, Population = 0.
.
.

Generation = 10, Population = 0.
.
.

Generation = 12, Population = 0.
.
.

Generation = 14, Population = 0.
.
.

Generation = 16, Population = 0.
.
.

Generation = 18, Population = 0.
.
.

Generation = 20, Population = 0.
.
.

Generation = 22, Population = 0.
.
.

Generation = 24, Population = 0.
.
.

Generation = 26, Population = 0.
.
.

Generation = 28, Population = 0.
.
.

Generation = 30, Population = 0.
.
.

Generation = 32, Population = 0.
.
.

Generation = 34, Population = 0.
.
.

Generation = 36, Population = 0.
.
.

Generation = 38, Population = 0.
.
.

*** Life<Cell> 23x46 ***

Generation = 0, Population = 14.
----------------------------------------------
----0------------------------------------0----
------------------------------0---------------
----------------------------------------------
-----------------------------0----------------
----------------------------------------------
---------0------------------------------------
----------------------------------------------
----------------------------------------------
---------------0------------------------------
-------------------------------0--------------
---------------------------------------0------
----------------------------------------------
-------0---------------------------------0----
----------------------------------------------
------------------0---------------------------
----------------------------------------------
----------------------------------------------
----------------------------------------------
----------------------------------------------
----------------------------------------------
-------------0--------------------------------
----0--------------0--------------------------

Generation = 9, Population = 187.
--0-----0-0-0--0----------1-...--0---------0--
-0-0-----0-0-00-0-----0------0100-0---0---0-0-
--0---------0--0-----0-0-.0-1.10-.---0-----0--
---------------------00----0000-0----0--0-----
----0--0------------0-0---.1*1.1-0.-0-00------
-0-0-00-0----.---0---0------000-0----0--------
0-0-0--1-------.0------------0.1--------------
-0-----------------0----------0---------------
----0--0----------0----0-----------------0----
---0-10-0---------.---010-----0----.---00-0---
----0--.--------------010----0--------0-00---0
-------------------.---0-----0--0------0----0-
-------------0-0------------0-00-0---------0-0
----0----1--0---0--0---------0--0-0-------0-0-
---0-0--0----0-0--0-0-----0------0---------0--
-----------1-.-.---------0-0------------------
---0-0----0--0-0--0-0-----0-------------------
----0-------0-..0--0-----------0--------------
-------------0-0--------------0-0------0------
-----------------.-------------0------0-0-----
-----0-0---------.---0-----------------0-0----
--0-0---0--00-----..0-0----0------------0-0---
-0-0-0-0--0**1-------0----0-0------------0----

*** Life<Cell> 10x12 ***

Generation = 0, Population = 26.
--0-0-0-0--0
-----0---00-
-----0-00---
0--0-----0--
0--0-----0--
------------
-0----0-----
-----------0
--0------0--
0-0--0-0----

Generation = 5, Population = 62.
.01-**---1.-
--0-0-**..-.
1-*-*.0.*-11
*-*-*--.-*.1
**.--*------
10-1-0---*-1
1-*0-00-1010
00.*-1-10-01
*.-11-*1-00-
*-..*0*00-01

Generation = 10, Population = 48.
***1**1**1.-
*1----....-.
.1.-*.**.-.-
****.1-*-...
*.**-.1.--10
.-.**--.-*..
*1**1--.*-.*
-..**.------
..-1*.*.*1..
.-..*-.-*1-.

Generation = 15, Population = 43.
..***......-
..-*01....1.
*..**....*.-
*..**-**....
..*.0***.-.-
*.*..11.1*..
*1...-**.-*.
.*....1---1-
*.*1..***.*.
.*.....-.--.

*** Life<Cell> 16x29 ***

Generation = 0, Population = 15.
--0-----------0--------------
----------------0------0-----
-----------------------------
---0---------------0----0----
-----------------------------
----------------------------0
-----------------------------
-----0---------------------0-
------------0----------------
---------0-------------------
-----------------------------
-------------------0---------
-----------------------------
------0----------------------
-----------------------------
--------0--------------------

Generation = 7, Population = 204.
---0-0---01----0*0-0*00---00-
--0-0---00-01------.*-**.*-.1
-0-0---0-01000.---10---0100--
0-0---0-0--0-10-1*1-*-1*11-.1
-0---0-0---01-0----0-0-00--0-
----0-0---0-00-*00--1-*.1-.--
-0-0-00--0-0-010*00-0--0-0--0
0-0-00-10-0-0-00*00-01-..--1.
---00-*0-0-0---000-0-0000-0--
0-00**1-0-0---0-0-0----0-----
-0000--0*0---0-0-----0--0-0--
-011---***--0-0---0-0-0----0-
0-00----0-*--0---0-0-0-0---00
-0--0---10**----0-0-0-0-0-0-0
0----0-0-00-*000-0---0-0---0-
--------0-001--00-----0------

Generation = 14, Population = 208.
0-0-1-.1-0.-.*...-**.100**..1
-00111-.**..-0*......*..*.-.-
--0---*-0-*0--.-*--.--1.*-**.
-01010-1.10-*.0*.*.*.****-*.*
--*-----11---0.-*--*.-01*--**
0--1-0101*000*..1.0*.1.*.-...
0---.---11*0-**1.---11-*.-0--
00-1-----0-..-1*.-00--1...-1.
---0-1.1*---1-1-*-*--*-.-10*1
-1--...*--.-1....-*1-1*-..1--
-1-*-.-*.--*1-*-00010--1--*10
*.1....*.*--0.110-1-1*-.1..**
011.-0----*-*0--1-1--1-.-00--
-1.*01-*.1.*0*1--*--1--1--*--
--0-00*-0-11.*-1----1--11----
--**0-10---0-0*-10--11-*.10**

*** Life<Cell> 10x28 ***

Generation = 0, Population = 22.
------0------------0--------
-0--0-----------------------
----0-----------------------
--0------------0------------
----0--00-------------------
-----0--------0-------------
----------------------------
-------0--------0---0-------
0-0-0-0---------------------
--------0-----0----0--------

Generation = 6, Population = 105.
--010--*00--00-1-0-0-0-0-0--
--1-1-.0--100------10-------
----.*0-.--10--0-0-*-0-0----
.*---*1.101--1.--11.-10-----
-0.-*---*.--.11--0-0-0------
0-11*-0---*01-1*-1--10--0---
0--0*-110-111------0--------
11--1-00.------1---..1-1--0-
-----0**11.-0---------------
----0*1*-1-0-0--.0011*1010--

Generation = 12, Population = 120.
-*--1-1.1---1*.--10----1-0--
.-.**-**10*1.-.*-1-.1-1-----
*-...****.*-0*-*011.-*1----0
**1*1*-*.*.--..*.**....11--1
-..*.*-*.......***001------0
...*.-*--...1.-.-**..-*11-00
.1*0.0*.*0*.-1--0*-1..--1---
..*..0***.*..**.*0-..-----**
*1--.-**1*.0.0*-*1-0.10-11--
0--.1...-.---*-*..-1-**-1.--

Generation = 18, Population = 109.
1***.-..*11..**--*****.-000-
*..*...**1*..-..1*-.*-.-0-01
*..*.....****.-.--*.*.**.1--
..**...**.*-..*.....***..*-1
.*.***-**..**....**-.001-.1*
**....*-....-..*-.*..-.-.-*0
*.*-.0*..-...**....1..*1.1-*
......*......**...-***0*-1.*
.....-*..*...*....**.-*-1**0
.1..-...-.1.-.*...-*-*.-..-.

Generation = 24, Population = 98.
-*...1....-.****0.....**-10-
*.*..................-**11-.
*.*........***0..-......*.-1
*.**.**..*..***....*.*..**-.
..**.**.**.**.*....*.**...1.
*.....**..***.*...**.-.-*-*.
.**...***-**.*.....*...1**0.
..**........*****.-...0*.-..
.....1.......*.**.**.-...**.
.-..*...-.-.-.....-.1..****.

Generation = 30, Population = 97.
-....-....1...........*.***-
.......*.***.......**....--*
.***....****..0..-.*..*...-*
.***.....***...**..*......**
*..*....**......*......*...*
*.**..*...****..**..*.**.1..
*.**..*..*.**....**.*..1**0.
......**...***.****....*.*..
....**.....*..***.***....*..
.-..*...-.-.**......1.***...

Generation = 36, Population = 77.
1.**.-....**.........*.*..**
.*..*.....**.......***.*..-*
..*.**........-..-..***...1*
..*.**..............*...**.*
..*..*..*...........*...**.*
...*.*.**....*.....***...*.*
.*.*.*.**...*.*....*.*....**
..**.*.*....*......*.**.....
......***....*......***.....
.-.....*-.-.................

Generation = 42, Population = 58.
**.**.*...**................
**.**.**.***.............*.*
...*.*.****...-..-.....*....
.*......**.............**...
.*................*.....*...
.*...*............*.....**.*
..**....................**.*
..*...***............*...**.
....*.*.............*.*.....
.-..*.....-.........*.*.....

*** Life<Cell> 62x48 ***

Generation = 0, Population = 29.
------------------------------------------------
------------------------------------------------
----------------------0-------------------------
------------------------------------------------
------------------------------------------------
------------------------------------------------
--------0---------------------------------------
------------------------------------0-----------
------------------------------------------------
-------------------0-----------0----------------
---0--------------------------------------0-----
-----------------------------------0------------
------------------------------------------------
------------------------------------------------
------------------------------------------------
------------------------------------------------
------------------------------------------------
------------------------------------------------
-------------------------------------------0----
------------------------------------------------
------------------------------------------0-----
------------------------------------------------
------------------------------------------------
------------------------------------------------
------------------------------------------------
------------------------------------------------
-------------------------0----------------------
----------------------------------------0-------
------------------------------------------------
------------------------------------------------
------------------------------------------------
------------------------------------------------
-----------------------------0------------------
------------------------------------------------
------------------------------------------------
-----------------------------------0------------
------------------------------------------------
------------------------------------------0-----
------0-----------------------------------------
------------------------------------------------
------------------------------------------------
------------------------------------------------
------------------------------------------------
------------------------------------------0-----
------------------------------------------0-----
--0--------------------0------------------------
------------------------------------------------
------------------------------------------------
------------------------------------------------
---------------------------0--------------------
----------------0-------------------------------
------------------------------------------------
-----------------------------------0--0---------
------------------------------------------------
------------------------------------------------
-------------0------------------0---------------
------------------------------------------------
------------------------------------------0-----
------------------------------------------------
------------------0-----------------------------
------------------------------------------------
------------------------0-----------------------

Generation = 4, Population = 111.
----------------------0-------------------------
------------------------------------------------
--------0---------0-------0---------------------
------------------------------------0-----------
------------------------------------------------
-------------------0-----------0----------------
---00-------0---------0-------------------0-----
--------------------------------1--1----0-------
------------------------------------------------
---------------0-------0---0-------*------------
-------00-----------------------------0-------0-
-------------------------------0----1--0--------
------------------------------------------------
-------------------0-----------0----------------
---0--------------------------------------00----
-----------------------------------0------------
------------------------------------------1-----
------------------------------------------------
---------------------------------------0--.----0
------------------------------------------------
--------------------------------------0----.--0-
------------------------------------------------
-------------------------0-----------------1----
----------------------------------------0-------
------------------------------------------0-----
------------------------------------------------
---------------------0-------0------------------
------------------------------------0-------0---
-----------------------------0------------------
------------------------------------------------
-------------------------0----------------------
-----------------------------------0----0-------
-------------------------0-------0--------------
------------------------------------------0-----
------0-----------------------------------------
-------------------------------0-------0--------
-----------------------------0------------------
--------------------------------------0-------0-
--0-------0-------------------------------------
-----------------------------------0------0-----
------------------------------------------0-----
--0--------------------0------------------*-----
------0-----------------------------------.-----
--------------------------------------0-------0-
--------------------------------------0-------0-
0-----0------------0----------------------.-----
----------------0-------------------------------
------------------------------------------1-----
-----------------------------------0--0---0-----
--0----------------------------0----------------
------------0-------0---------------------------
-------------0------------------0---------------
-------------------------------0--1-..-1--0-----
---------------------------0--------------0-----
----------------0-------------------------------
---------0-------00---------0-------0-----------
-----------------------------------0--0---------
------------------------0-------------0-------0-
------------------------------------------------
-------------00-------0-0-------0---------------
------------------------------------------------
------------------0-0-------0-------------0-----

*** Life<Cell> 37x14 ***

Generation = 0, Population = 7.
--------------
--------0-----
--------------
--------------
--------------
--------------
--------------
-0-----0------
--------------
--------------
--------------
--------------
---0----------
--------------
--------------
--------------
--------------
----0---------
--------------
--------------
--------------
--0-----------
--------------
--------------
--------------
--------------
--------------
--------------
--------------
--------------
--------------
--------------
--------------
-----0--------
--------------
--------------
--------------

Generation = 6, Population = 78.
--------------
-00----1------
--------------
---000---0--0-
--------------
---0-001--00--
---1----------
-0---0-000---0
-1-.-1--------
---1-0-0---0--
---0---1------
---000---0----
-----0---0----
-00---01------
---0---0------
0-0-0---0-----
-0---0--------
--0-0-0---0---
---0----------
--0-0-0-0-----
--------------
0---0-0-0-----
--------------
0-0-0-0-------
--------------
0---0---------
--------------
--0--0--------
--------------
---0---0------
--------------
-0---0---0----
--------------
---0---0---0--
--------------
-0-------0----
--------------

Generation = 12, Population = 90.
---0----------
1-1-0---------
-------0------
-----*0--1---1
-----*---1----
0-0--.-....---
--0.-110-1----
0--*-.---.-0-0
0.1**1-10--0--
1-*.1.0--.--1-
0---10-*------
--*--0-*-1---1
--1-1--------0
-..---*-1---0-
--------------
-11*-0-----0--
-----------0--
*.1-0-1-1-0-0-
--------------
-0-----0------
-------0------
0-0-000-0---0-
--------------
--------------
---1-1--------
01*.-..-100---
-----1--------
--------------
--------------
01--0-0------0
--------------
--------------
--------------
--0--0-----0--
--------------
--------------
--------------

*** Life<Cell> 32x1 ***

Generation = 0, Population = 16.
-
0
0
0
-
-
0
-
0
-
-
-
0
-
0
-
0
-
0
0
-
-
-
0
-
-
0
0
0
0
0
-

Generation = 4, Population = 12.
.
.
-
.
0
.
*
0
0
-
-
-
-
-
0
0
1
*
.
-
1
-
-
-
1
-
.
-
-
*
*
.

Generation = 8, Population = 3.
.
.
-
.
-
.
.
*
.
-
-
-
-
-
.
-
*
.
.
-
-
-
-
-
-
-
.
1
-
.
.
.

*** Life<Cell> 16x43 ***

Generation = 0, Population = 3.
-------------------------------------------
-------------------------------------------
-------------------------------------------
---------0---------------------------------
-------------------------------------------
-------------------------------------------
------------------------------------------0
-------------------------------------------
-------------------------------------------
-------------------------------------------
-------------------------------------------
-------------------------------------------
-------------------------------------------
-------------------------------------------
-------------------------------------------
---------------0---------------------------

Generation = 9, Population = 39.
-----------------------------------------0-
------------------------------------------0
-0-------0-------0-------------------------
0-0-----0-0-----0-0------------------------
-0-------0-------0-------------------------
----------------------------------0-0------
---------------0-----------------0---0-----
--------------0-0-----------------0-0------
-------------------------------------------
--------------0-0--------------------------
---------0-----0---------------------------
--------0-0--------------------------------
---------0---------------------------------
------------------------------------------0
-------0---------------0-----------------0-
------0-0-------------0-0-----------------0

Generation = 18, Population = 35.
-------------------------------------------
-----0-------0---0-------0-----------------
-------------------------------------------
---0---0-------0-------0---0---------------
--------------------------0-0--------------
-----0-------------------0-----------------
------------------------0-0-0-0-----------0
-------------------------------------------
--------------------------0-0-----------0--
---------0---------------------------------
----------------------------------------0--
-------0-0-0-------------------------------
------------------------------------------0
-------0-0-0-------------------0-----------
-------------------------------------------
---------0-------------------0-0-0---------

*** Life<Cell> 40x16 ***

Generation = 0, Population = 1.
----------------
----------------
----------------
----------------
----------------
----------------
----------------
----------------
----------------
----------------
----------------
----------------
----------------
----------------
----------------
----------------
----------------
----------------
----------------
----------------
----------------
----------------
----------------
----------------
----------------
----------------
----------------
----------------
----------------
----------------
----------------
----------------
----------------
----------------
----------------
------------0---
----------------
----------------
----------------
----------------

Generation = 8, Population = 4.
----------------
----------------
----------------
----------------
----------------
----------------
----------------
----------------
----------------
----------------
----------------
----------------
----------------
----------------
----------------
----------------
----------------
----------------
----------------
----------------
----------------
----------------
----------------
----------------
----------------
----------------
----------------
------------0---
----------------
----------------
----------------
----------------
----------------
----------------
----------------
----0-------0---
----------------
------------0---
----------------
----------------

Generation = 16, Population = 4.
----------------
----------------
----------------
----------------
----------------
----------------
----------------
----------------
----------------
----------------
----------------
----------------
----------------
----------------
----------------
----------------
----------------
----------------
----------------
------------0---
----------------
----------------
----------------
----------------
----------------
----------------
----------------
----------------
----------------
------------0---
----------------
----------------
----------------
----------------
----------------
--0-0-----------
----------------
----------------
----------------
----------------

Generation = 24, Population = 16.
----------------
----------------
----------------
----------------
----------------
----------------
----------------
----------------
----------------
----------------
----------------
------------0---
----------------
----------------
----------------
----------------
----------------
----------------
----------------
----0-------0---
----------------
------------0---
----------------
----------------
----------------
----------------
----------------
--0-0-------0---
----------------
----0-------0---
----------------
----------------
----------------
----------------
----------------
--0-0-----0-0---
----------------
--0-0-------0---
----------------
----------------
